 5 4
 6 3 2
 13 11 12
 16 15 14 17 18 20
 28 29
 34 33
 42 41 44 43
 53 54
 59 60
 65 66
 70 71 72 73
 74 75 76
 84 85
 88 89
 92 93
 103 104 105
 109 110
 106 107
 121 122
 126 127
 130 131
 137 139 138
 142 143
 145 146
 153 154
 168 169
 180 181
 179 178
 188 187 186
 203 202
 196 197
 211 210
 214 213 212
 218 217
 227 228
 240 239 238 237
 241 242 238 238
 242 241
 246 245
 
 247 248 249
 259 258
 263 264
 269 268 267 266 265 270
 275 278 279 283
 298 297 295 296
 300 301
 304 303
 307 308 309 310
 312 311
 313 314
 319 320 321 322 323
 
 320 321 322 323 324
 329 328 327 326 325
 334 335 336 337 338 339
 332 333
 343 344
 347 346
 357 358
 
 351 352 353
 361 360
 
 364 365 366
