benchmark,model,property,algorithm,seed,simulations,time,robustness,falsified,input,control points,exploration ratio,budget
NN,narmamaglev_v1,"□_[1.0, 18.0] (!(abs((Pos - Ref)) <= (0.005 + (0.03 * abs(Ref)))) ==> ◇_[0.0, 2.0] □_[0.0, 1.0] (abs((Pos - Ref)) <= (0.005 + (0.03 * abs(Ref)))))",adaptive,0,18,24,-0.008696468713446,yes,[0.0 2.0; 10.5 2.75; 17.5 1.0; 21.0 1.0],2 2 3 3 3 3,0.25,300
NN,narmamaglev_v1,"□_[1.0, 18.0] (!(abs((Pos - Ref)) <= (0.005 + (0.03 * abs(Ref)))) ==> ◇_[0.0, 2.0] □_[0.0, 1.0] (abs((Pos - Ref)) <= (0.005 + (0.03 * abs(Ref)))))",adaptive,1.08236992750601E+018,159,54,-0.008696468713446,yes,[0.0 2.0; 10.5 2.75; 17.5 1.0; 21.0 1.0],2 2 3 3 3 3,0.25,300
NN,narmamaglev_v1,"□_[1.0, 18.0] (!(abs((Pos - Ref)) <= (0.005 + (0.03 * abs(Ref)))) ==> ◇_[0.0, 2.0] □_[0.0, 1.0] (abs((Pos - Ref)) <= (0.005 + (0.03 * abs(Ref)))))",adaptive,-2.13171694806145E+018,56,18,-0.008696468713446,yes,[0.0 2.0; 10.5 2.75; 17.5 1.0; 21.0 1.0],2 2 3 3 3 3,0.25,300
NN,narmamaglev_v1,"□_[1.0, 18.0] (!(abs((Pos - Ref)) <= (0.005 + (0.03 * abs(Ref)))) ==> ◇_[0.0, 2.0] □_[0.0, 1.0] (abs((Pos - Ref)) <= (0.005 + (0.03 * abs(Ref)))))",adaptive,1.60516931154931E+017,300,101,0.055050968515742,no,[0.0 2.0; 10.5 2.25; 17.5 2.25; 21.0 2.25],2 2 3 3 3 3,0.25,300
NN,narmamaglev_v1,"□_[1.0, 18.0] (!(abs((Pos - Ref)) <= (0.005 + (0.03 * abs(Ref)))) ==> ◇_[0.0, 2.0] □_[0.0, 1.0] (abs((Pos - Ref)) <= (0.005 + (0.03 * abs(Ref)))))",adaptive,2.8626526339035E+018,136,45,-0.008696468713446,yes,[0.0 2.0; 10.5 2.75; 17.5 1.0; 21.0 1.0],2 2 3 3 3 3,0.25,300
NN,narmamaglev_v1,"□_[1.0, 18.0] (!(abs((Pos - Ref)) <= (0.005 + (0.03 * abs(Ref)))) ==> ◇_[0.0, 2.0] □_[0.0, 1.0] (abs((Pos - Ref)) <= (0.005 + (0.03 * abs(Ref)))))",adaptive,-1.04495807647605E+018,249,83,-0.008696468713446,yes,[0.0 2.0; 10.5 2.75; 17.5 1.0; 21.0 1.0],2 2 3 3 3 3,0.25,300
NN,narmamaglev_v1,"□_[1.0, 18.0] (!(abs((Pos - Ref)) <= (0.005 + (0.03 * abs(Ref)))) ==> ◇_[0.0, 2.0] □_[0.0, 1.0] (abs((Pos - Ref)) <= (0.005 + (0.03 * abs(Ref)))))",adaptive,-2.74268492754831E+018,287,97,0.025952503874869,no,[0.0 3.0; 10.5 2.5; 17.5 1.125; 21.0 1.125],2 2 3 3 3 3,0.25,300
NN,narmamaglev_v1,"□_[1.0, 18.0] (!(abs((Pos - Ref)) <= (0.005 + (0.03 * abs(Ref)))) ==> ◇_[0.0, 2.0] □_[0.0, 1.0] (abs((Pos - Ref)) <= (0.005 + (0.03 * abs(Ref)))))",adaptive,-6.14355515941496E+018,14,4,-0.008696468713446,yes,[0.0 2.0; 10.5 2.75; 17.5 1.0; 21.0 1.0],2 2 3 3 3 3,0.25,300
NN,narmamaglev_v1,"□_[1.0, 18.0] (!(abs((Pos - Ref)) <= (0.005 + (0.03 * abs(Ref)))) ==> ◇_[0.0, 2.0] □_[0.0, 1.0] (abs((Pos - Ref)) <= (0.005 + (0.03 * abs(Ref)))))",adaptive,-8.35494212097288E+018,47,15,-0.008696468713446,yes,[0.0 2.0; 10.5 2.75; 17.5 1.0; 21.0 1.0],2 2 3 3 3 3,0.25,300
NN,narmamaglev_v1,"□_[1.0, 18.0] (!(abs((Pos - Ref)) <= (0.005 + (0.03 * abs(Ref)))) ==> ◇_[0.0, 2.0] □_[0.0, 1.0] (abs((Pos - Ref)) <= (0.005 + (0.03 * abs(Ref)))))",adaptive,-9.16867129063602E+018,70,23,-0.008696468713446,yes,[0.0 2.0; 10.5 2.75; 17.5 1.0; 21.0 1.0],2 2 3 3 3 3,0.25,300
NN,narmamaglev_v1,"□_[1.0, 18.0] (!(abs((Pos - Ref)) <= (0.005 + (0.03 * abs(Ref)))) ==> ◇_[0.0, 2.0] □_[0.0, 1.0] (abs((Pos - Ref)) <= (0.005 + (0.03 * abs(Ref)))))",adaptive,-4.40540983745258E+018,198,66,-0.008767879351858,yes,[0.0 2.5; 7.0 2.375; 14.0 1.0; 21.0 1.0],2 2 3 3 3 3,0.25,300
NN,narmamaglev_v1,"□_[1.0, 18.0] (!(abs((Pos - Ref)) <= (0.005 + (0.03 * abs(Ref)))) ==> ◇_[0.0, 2.0] □_[0.0, 1.0] (abs((Pos - Ref)) <= (0.005 + (0.03 * abs(Ref)))))",adaptive,2.11105942411251E+018,188,63,-0.008696468713446,yes,[0.0 2.0; 10.5 2.75; 17.5 1.0; 21.0 1.0],2 2 3 3 3 3,0.25,300
NN,narmamaglev_v1,"□_[1.0, 18.0] (!(abs((Pos - Ref)) <= (0.005 + (0.03 * abs(Ref)))) ==> ◇_[0.0, 2.0] □_[0.0, 1.0] (abs((Pos - Ref)) <= (0.005 + (0.03 * abs(Ref)))))",adaptive,5.92804704329103E+017,89,30,-0.008696468713446,yes,[0.0 2.0; 10.5 2.75; 17.5 1.0; 21.0 1.0],2 2 3 3 3 3,0.25,300
NN,narmamaglev_v1,"□_[1.0, 18.0] (!(abs((Pos - Ref)) <= (0.005 + (0.03 * abs(Ref)))) ==> ◇_[0.0, 2.0] □_[0.0, 1.0] (abs((Pos - Ref)) <= (0.005 + (0.03 * abs(Ref)))))",adaptive,-5.11893689609454E+018,110,37,-0.008767879351858,yes,[0.0 2.5; 7.0 2.375; 14.0 1.0; 21.0 1.0],2 2 3 3 3 3,0.25,300
NN,narmamaglev_v1,"□_[1.0, 18.0] (!(abs((Pos - Ref)) <= (0.005 + (0.03 * abs(Ref)))) ==> ◇_[0.0, 2.0] □_[0.0, 1.0] (abs((Pos - Ref)) <= (0.005 + (0.03 * abs(Ref)))))",adaptive,8.17506507924832E+017,64,21,-0.008696468713446,yes,[0.0 2.0; 10.5 2.75; 17.5 1.0; 21.0 1.0],2 2 3 3 3 3,0.25,300
NN,narmamaglev_v1,"□_[1.0, 18.0] (!(abs((Pos - Ref)) <= (0.005 + (0.03 * abs(Ref)))) ==> ◇_[0.0, 2.0] □_[0.0, 1.0] (abs((Pos - Ref)) <= (0.005 + (0.03 * abs(Ref)))))",adaptive,-2.92605573492481E+018,169,56,-0.008696468713446,yes,[0.0 2.0; 10.5 2.75; 17.5 1.0; 21.0 1.0],2 2 3 3 3 3,0.25,300
NN,narmamaglev_v1,"□_[1.0, 18.0] (!(abs((Pos - Ref)) <= (0.005 + (0.03 * abs(Ref)))) ==> ◇_[0.0, 2.0] □_[0.0, 1.0] (abs((Pos - Ref)) <= (0.005 + (0.03 * abs(Ref)))))",adaptive,4.38325866425997E+018,60,20,-0.008696468713446,yes,[0.0 2.0; 10.5 2.75; 17.5 1.0; 21.0 1.0],2 2 3 3 3 3,0.25,300
NN,narmamaglev_v1,"□_[1.0, 18.0] (!(abs((Pos - Ref)) <= (0.005 + (0.03 * abs(Ref)))) ==> ◇_[0.0, 2.0] □_[0.0, 1.0] (abs((Pos - Ref)) <= (0.005 + (0.03 * abs(Ref)))))",adaptive,-1.84635420868559E+018,213,71,-0.008696468713446,yes,[0.0 2.0; 10.5 2.75; 17.5 1.0; 21.0 1.0],2 2 3 3 3 3,0.25,300
NN,narmamaglev_v1,"□_[1.0, 18.0] (!(abs((Pos - Ref)) <= (0.005 + (0.03 * abs(Ref)))) ==> ◇_[0.0, 2.0] □_[0.0, 1.0] (abs((Pos - Ref)) <= (0.005 + (0.03 * abs(Ref)))))",adaptive,-3.65271859266035E+018,300,103,0.035865201785367,no,[0.0 3.0; 10.5 1.5; 17.5 2.4375; 21.0 2.4375],2 2 3 3 3 3,0.25,300
NN,narmamaglev_v1,"□_[1.0, 18.0] (!(abs((Pos - Ref)) <= (0.005 + (0.03 * abs(Ref)))) ==> ◇_[0.0, 2.0] □_[0.0, 1.0] (abs((Pos - Ref)) <= (0.005 + (0.03 * abs(Ref)))))",adaptive,-2.40292045336903E+018,300,102,0.00976652743471,no,[0.0 1.0; 10.5 1.5; 17.5 2.9375; 21.0 2.9375],2 2 3 3 3 3,0.25,300
NN,narmamaglev_v1,"□_[1.0, 18.0] (!(abs((Pos - Ref)) <= (0.005 + (0.03 * abs(Ref)))) ==> ◇_[0.0, 2.0] □_[0.0, 1.0] (abs((Pos - Ref)) <= (0.005 + (0.03 * abs(Ref)))))",adaptive,3.30416401633569E+018,117,40,-0.008696468713446,yes,[0.0 2.0; 10.5 2.75; 17.5 1.0; 21.0 1.0],2 2 3 3 3 3,0.25,300
NN,narmamaglev_v1,"□_[1.0, 18.0] (!(abs((Pos - Ref)) <= (0.005 + (0.03 * abs(Ref)))) ==> ◇_[0.0, 2.0] □_[0.0, 1.0] (abs((Pos - Ref)) <= (0.005 + (0.03 * abs(Ref)))))",adaptive,-8.22236560770047E+018,294,101,0.027004497418705,no,[0.0 2.0; 10.5 1.75; 17.5 1.25; 21.0 1.25],2 2 3 3 3 3,0.25,300
NN,narmamaglev_v1,"□_[1.0, 18.0] (!(abs((Pos - Ref)) <= (0.005 + (0.03 * abs(Ref)))) ==> ◇_[0.0, 2.0] □_[0.0, 1.0] (abs((Pos - Ref)) <= (0.005 + (0.03 * abs(Ref)))))",adaptive,6.98981352946667E+017,7,3,-0.008696468713446,yes,[0.0 2.0; 10.5 2.75; 17.5 1.0; 21.0 1.0],2 2 3 3 3 3,0.25,300
NN,narmamaglev_v1,"□_[1.0, 18.0] (!(abs((Pos - Ref)) <= (0.005 + (0.03 * abs(Ref)))) ==> ◇_[0.0, 2.0] □_[0.0, 1.0] (abs((Pos - Ref)) <= (0.005 + (0.03 * abs(Ref)))))",adaptive,3.71020663391946E+018,54,20,-0.008696468713446,yes,[0.0 2.0; 10.5 2.75; 17.5 1.0; 21.0 1.0],2 2 3 3 3 3,0.25,300
NN,narmamaglev_v1,"□_[1.0, 18.0] (!(abs((Pos - Ref)) <= (0.005 + (0.03 * abs(Ref)))) ==> ◇_[0.0, 2.0] □_[0.0, 1.0] (abs((Pos - Ref)) <= (0.005 + (0.03 * abs(Ref)))))",adaptive,-2.96164859624512E+018,238,82,-0.008696468713446,yes,[0.0 2.0; 10.5 2.75; 17.5 1.0; 21.0 1.0],2 2 3 3 3 3,0.25,300
NN,narmamaglev_v1,"□_[1.0, 18.0] (!(abs((Pos - Ref)) <= (0.005 + (0.03 * abs(Ref)))) ==> ◇_[0.0, 2.0] □_[0.0, 1.0] (abs((Pos - Ref)) <= (0.005 + (0.03 * abs(Ref)))))",adaptive,-3.19205182478988E+018,102,34,-0.004936593292184,yes,[0.0 2.1875; 7.0 1.0; 17.5 3.0; 21.0 3.0],2 2 3 3 3 3,0.25,300
NN,narmamaglev_v1,"□_[1.0, 18.0] (!(abs((Pos - Ref)) <= (0.005 + (0.03 * abs(Ref)))) ==> ◇_[0.0, 2.0] □_[0.0, 1.0] (abs((Pos - Ref)) <= (0.005 + (0.03 * abs(Ref)))))",adaptive,8.77252014349219E+018,289,97,0.00976652743471,no,[0.0 1.0; 10.5 1.75; 17.5 2.625; 21.0 2.625],2 2 3 3 3 3,0.25,300
NN,narmamaglev_v1,"□_[1.0, 18.0] (!(abs((Pos - Ref)) <= (0.005 + (0.03 * abs(Ref)))) ==> ◇_[0.0, 2.0] □_[0.0, 1.0] (abs((Pos - Ref)) <= (0.005 + (0.03 * abs(Ref)))))",adaptive,-2.74569115359085E+018,184,61,-0.001437432195522,yes,[0.0 2.125; 7.0 1.0625; 14.0 2.0; 21.0 2.0],2 2 3 3 3 3,0.25,300
NN,narmamaglev_v1,"□_[1.0, 18.0] (!(abs((Pos - Ref)) <= (0.005 + (0.03 * abs(Ref)))) ==> ◇_[0.0, 2.0] □_[0.0, 1.0] (abs((Pos - Ref)) <= (0.005 + (0.03 * abs(Ref)))))",adaptive,7.81928202939733E+018,282,95,0.033866241371817,no,[0.0 2.0; 10.5 1.5; 17.5 2.4375; 21.0 2.4375],2 2 3 3 3 3,0.25,300
NN,narmamaglev_v1,"□_[1.0, 18.0] (!(abs((Pos - Ref)) <= (0.005 + (0.03 * abs(Ref)))) ==> ◇_[0.0, 2.0] □_[0.0, 1.0] (abs((Pos - Ref)) <= (0.005 + (0.03 * abs(Ref)))))",adaptive,8.0101844491631E+018,103,35,-0.008696468713446,yes,[0.0 2.0; 10.5 2.75; 17.5 1.0; 21.0 1.0],2 2 3 3 3 3,0.25,300
NN,narmamaglev_v1,"□_[1.0, 18.0] (!(abs((Pos - Ref)) <= (0.005 + (0.03 * abs(Ref)))) ==> ◇_[0.0, 2.0] □_[0.0, 1.0] (abs((Pos - Ref)) <= (0.005 + (0.03 * abs(Ref)))))",adaptive,4.26463770177072E+018,185,63,-0.004936593292184,yes,[0.0 2.1875; 7.0 1.0; 17.5 1.0; 21.0 1.0],2 2 3 3 3 3,0.25,300
NN,narmamaglev_v1,"□_[1.0, 18.0] (!(abs((Pos - Ref)) <= (0.005 + (0.03 * abs(Ref)))) ==> ◇_[0.0, 2.0] □_[0.0, 1.0] (abs((Pos - Ref)) <= (0.005 + (0.03 * abs(Ref)))))",adaptive,6.40275651016152E+018,28,9,-0.004973348042669,yes,[0.0 1.75; 7.0 2.75; 14.0 1.0; 21.0 1.0],2 2 3 3 3 3,0.25,300
NN,narmamaglev_v1,"□_[1.0, 18.0] (!(abs((Pos - Ref)) <= (0.005 + (0.03 * abs(Ref)))) ==> ◇_[0.0, 2.0] □_[0.0, 1.0] (abs((Pos - Ref)) <= (0.005 + (0.03 * abs(Ref)))))",adaptive,3.49021056865997E+018,197,68,-0.008696468713446,yes,[0.0 2.0; 10.5 2.75; 17.5 1.0; 21.0 1.0],2 2 3 3 3 3,0.25,300
NN,narmamaglev_v1,"□_[1.0, 18.0] (!(abs((Pos - Ref)) <= (0.005 + (0.03 * abs(Ref)))) ==> ◇_[0.0, 2.0] □_[0.0, 1.0] (abs((Pos - Ref)) <= (0.005 + (0.03 * abs(Ref)))))",adaptive,1.62781137821215E+018,146,49,-0.008696468713446,yes,[0.0 2.0; 10.5 2.75; 17.5 1.0; 21.0 1.0],2 2 3 3 3 3,0.25,300
NN,narmamaglev_v1,"□_[1.0, 18.0] (!(abs((Pos - Ref)) <= (0.005 + (0.03 * abs(Ref)))) ==> ◇_[0.0, 2.0] □_[0.0, 1.0] (abs((Pos - Ref)) <= (0.005 + (0.03 * abs(Ref)))))",adaptive,6.54175280126738E+018,300,103,0.053289782355044,no,[0.0 2.75; 7.0 2.0; 17.5 3.0; 21.0 3.0],2 2 3 3 3 3,0.25,300
NN,narmamaglev_v1,"□_[1.0, 18.0] (!(abs((Pos - Ref)) <= (0.005 + (0.03 * abs(Ref)))) ==> ◇_[0.0, 2.0] □_[0.0, 1.0] (abs((Pos - Ref)) <= (0.005 + (0.03 * abs(Ref)))))",adaptive,-8.18542619068119E+018,260,87,-0.008696468713446,yes,[0.0 2.0; 10.5 2.75; 17.5 1.0; 21.0 1.0],2 2 3 3 3 3,0.25,300
NN,narmamaglev_v1,"□_[1.0, 18.0] (!(abs((Pos - Ref)) <= (0.005 + (0.03 * abs(Ref)))) ==> ◇_[0.0, 2.0] □_[0.0, 1.0] (abs((Pos - Ref)) <= (0.005 + (0.03 * abs(Ref)))))",adaptive,-1.74781490704319E+018,300,101,0.03329129463223,no,[0.0 2.5; 7.0 3.0; 17.5 1.5; 21.0 1.5],2 2 3 3 3 3,0.25,300
NN,narmamaglev_v1,"□_[1.0, 18.0] (!(abs((Pos - Ref)) <= (0.005 + (0.03 * abs(Ref)))) ==> ◇_[0.0, 2.0] □_[0.0, 1.0] (abs((Pos - Ref)) <= (0.005 + (0.03 * abs(Ref)))))",adaptive,5.79766028589657E+017,98,32,-0.008696468713446,yes,[0.0 2.0; 10.5 2.75; 17.5 1.0; 21.0 1.0],2 2 3 3 3 3,0.25,300
NN,narmamaglev_v1,"□_[1.0, 18.0] (!(abs((Pos - Ref)) <= (0.005 + (0.03 * abs(Ref)))) ==> ◇_[0.0, 2.0] □_[0.0, 1.0] (abs((Pos - Ref)) <= (0.005 + (0.03 * abs(Ref)))))",adaptive,-8.89886997149974E+018,235,80,-0.008696468713446,yes,[0.0 2.0; 10.5 2.75; 17.5 1.0; 21.0 1.0],2 2 3 3 3 3,0.25,300
NN,narmamaglev_v1,"□_[1.0, 18.0] (!(abs((Pos - Ref)) <= (0.005 + (0.03 * abs(Ref)))) ==> ◇_[0.0, 2.0] □_[0.0, 1.0] (abs((Pos - Ref)) <= (0.005 + (0.03 * abs(Ref)))))",adaptive,-7.42167558276264E+018,288,97,Infinity,no,[],2 2 3 3 3 3,0.25,300
NN,narmamaglev_v1,"□_[1.0, 18.0] (!(abs((Pos - Ref)) <= (0.005 + (0.03 * abs(Ref)))) ==> ◇_[0.0, 2.0] □_[0.0, 1.0] (abs((Pos - Ref)) <= (0.005 + (0.03 * abs(Ref)))))",adaptive,7.51818726451824E+018,103,34,-0.008696468713446,yes,[0.0 2.0; 10.5 2.75; 17.5 1.0; 21.0 1.0],2 2 3 3 3 3,0.25,300
NN,narmamaglev_v1,"□_[1.0, 18.0] (!(abs((Pos - Ref)) <= (0.005 + (0.03 * abs(Ref)))) ==> ◇_[0.0, 2.0] □_[0.0, 1.0] (abs((Pos - Ref)) <= (0.005 + (0.03 * abs(Ref)))))",adaptive,-8.99830244907498E+018,79,27,-0.004936593292184,yes,[0.0 2.1875; 7.0 1.0; 17.5 1.0; 21.0 1.0],2 2 3 3 3 3,0.25,300
NN,narmamaglev_v1,"□_[1.0, 18.0] (!(abs((Pos - Ref)) <= (0.005 + (0.03 * abs(Ref)))) ==> ◇_[0.0, 2.0] □_[0.0, 1.0] (abs((Pos - Ref)) <= (0.005 + (0.03 * abs(Ref)))))",adaptive,3.30262705268901E+018,152,51,-0.008696468713446,yes,[0.0 2.0; 10.5 2.75; 17.5 1.0; 21.0 1.0],2 2 3 3 3 3,0.25,300
NN,narmamaglev_v1,"□_[1.0, 18.0] (!(abs((Pos - Ref)) <= (0.005 + (0.03 * abs(Ref)))) ==> ◇_[0.0, 2.0] □_[0.0, 1.0] (abs((Pos - Ref)) <= (0.005 + (0.03 * abs(Ref)))))",adaptive,-8.43896067711817E+018,133,45,-0.008696468713446,yes,[0.0 2.0; 10.5 2.75; 17.5 1.0; 21.0 1.0],2 2 3 3 3 3,0.25,300
NN,narmamaglev_v1,"□_[1.0, 18.0] (!(abs((Pos - Ref)) <= (0.005 + (0.03 * abs(Ref)))) ==> ◇_[0.0, 2.0] □_[0.0, 1.0] (abs((Pos - Ref)) <= (0.005 + (0.03 * abs(Ref)))))",adaptive,2.26996781137831E+018,300,102,0.042481058985103,no,[0.0 2.0; 10.5 2.5; 17.5 1.75; 21.0 1.75],2 2 3 3 3 3,0.25,300
NN,narmamaglev_v1,"□_[1.0, 18.0] (!(abs((Pos - Ref)) <= (0.005 + (0.03 * abs(Ref)))) ==> ◇_[0.0, 2.0] □_[0.0, 1.0] (abs((Pos - Ref)) <= (0.005 + (0.03 * abs(Ref)))))",adaptive,5.73903571439899E+018,289,99,Infinity,no,[],2 2 3 3 3 3,0.25,300
NN,narmamaglev_v1,"□_[1.0, 18.0] (!(abs((Pos - Ref)) <= (0.005 + (0.03 * abs(Ref)))) ==> ◇_[0.0, 2.0] □_[0.0, 1.0] (abs((Pos - Ref)) <= (0.005 + (0.03 * abs(Ref)))))",adaptive,8.80775695136402E+018,62,21,-0.008696468713446,yes,[0.0 2.0; 10.5 2.75; 17.5 1.0; 21.0 1.0],2 2 3 3 3 3,0.25,300
NN,narmamaglev_v1,"□_[1.0, 18.0] (!(abs((Pos - Ref)) <= (0.005 + (0.03 * abs(Ref)))) ==> ◇_[0.0, 2.0] □_[0.0, 1.0] (abs((Pos - Ref)) <= (0.005 + (0.03 * abs(Ref)))))",adaptive,7.7101034618605E+018,295,100,0.00976652743471,no,[0.0 1.0; 10.5 2.375; 17.5 2.125; 21.0 2.125],2 2 3 3 3 3,0.25,300
NN,narmamaglev_v1,"□_[1.0, 18.0] (!(abs((Pos - Ref)) <= (0.005 + (0.03 * abs(Ref)))) ==> ◇_[0.0, 2.0] □_[0.0, 1.0] (abs((Pos - Ref)) <= (0.005 + (0.03 * abs(Ref)))))",adaptive,5.69381941956817E+018,98,33,-0.008696468713446,yes,[0.0 2.0; 10.5 2.75; 17.5 1.0; 21.0 1.0],2 2 3 3 3 3,0.25,300
NN,narmamaglev_v1,"□_[1.0, 18.0] (!(abs((Pos - Ref)) <= (0.005 + (0.03 * abs(Ref)))) ==> ◇_[0.0, 2.0] □_[0.0, 1.0] (abs((Pos - Ref)) <= (0.005 + (0.03 * abs(Ref)))))",adaptive,-4.93577390111553E+018,295,100,0.040019650013926,no,[0.0 3.0; 10.5 2.75; 17.5 1.75; 21.0 1.75],2 2 3 3 3 3,0.25,300
