   0.0000000e+00  -2.7109002e+05
   0.0000000e+00   1.5239712e+05
   5.7970002e+00  -2.7628508e+00
  -8.4644202e+00  -3.2331944e+01
  -8.3152184e+00  -3.0036907e+01
  -8.1667871e+00  -2.7753721e+01
  -8.0191203e+00  -2.5482296e+01
  -7.8722121e+00  -2.3222540e+01
  -7.7260567e+00  -2.0974363e+01
  -7.5806484e+00  -1.8737678e+01
  -7.4359814e+00  -1.6512396e+01
  -7.2920500e+00  -1.4298429e+01
  -7.1488487e+00  -1.2095693e+01
  -7.0063720e+00  -9.9041015e+00
  -6.8646142e+00  -7.7235703e+00
  -6.7235701e+00  -5.5540161e+00
  -6.5832343e+00  -3.3953560e+00
  -6.4436013e+00  -1.2475083e+00
  -6.3046660e+00   8.8960816e-01
  -6.1664232e+00   3.0160735e+00
  -6.0288676e+00   5.1319672e+00
  -5.8919942e+00   7.2373678e+00
  -5.7557978e+00   9.3323533e+00
  -5.6202736e+00   1.1417001e+01
