 14 15
 13 12
 24 25
 41 40
 52 53 54
 60 59
 65 64
 71 72
 90 89
 97 96
 107 106
 113 114
 120 119
 143 142
 156 157
 164 165
 174 175
 181 182
 200 201
 194 195
 231 232
 236 235
 252 253
 267 268 269
 280 281
 284 285
 296 297
 300 301
 340 341
 358 359
 362 363
 366 365
 367 368
 372 373
 375 376 377
 382 383
 394 393
 388 389
 398 399
 402 403
 404 405
