benchmark,instance,result,time
Heat3D,HEAT01,1,0.1114
Heat3D,HEAT01-discrete,1,0.0143
Heat3D,HEAT02,1,2.934
Heat3D,HEAT02-discrete,1,0.7097
Heat3D,HEAT03-discrete,1,116.9322
Heat3D,HEAT04-discrete,1,4832.4073
Beam,CBC01,1,5.7885
Beam,CBC01-discrete,1,1.6909
Beam,CBF01,1,6.5787
Beam,CBF01-discrete,1,0.5221
Beam,CBC02,1,6.3545
Beam,CBC02-discrete,1,3.3716
Beam,CBF02,1,38.2584
Beam,CBF02-discrete,1,2.1124
Beam,CBC03,1,17.1276
Beam,CBC03-discrete,1,5.7996
Beam,CBF03-discrete,1,7.8895
Rendezvous,NA01,1,1.1066
Rendezvous,NA01-discrete,1,0.4358
Rendezvous,A01,1,1.0791
Rendezvous,A01-discrete,1,0.4084
Rendezvous,A02,1,1.1544
Rendezvous,A02-discrete,1,0.4318
Rendezvous,A03,1,1.664
Rendezvous,A03-discrete,1,0.6263
Rendezvous,A04,1,110.0637
Rendezvous,U01,0,11.48
Rendezvous,U02,0,20.7551
Rendezvous,U02-discrete,0,10.3296
Powertrain,DTN01,1,0.8332
Powertrain,DTN02,1,0.7893
Powertrain,DTN03,1,0.7423
Powertrain,DTN04,1,1.5239
Powertrain,DTN05,1,1.9197
Powertrain,DTN06,1,2.3793
Platoon,PLAD01-BND42,1,0.0629
Platoon,PLAD01-BND42-discrete,1,0.9674
Platoon,PLAD01-BND30,1,56.784
Platoon,PLAD01-BND30-discrete,1,1.1398
Gear,GRBX01-MES01,1,4.6793
Gear,GRBX01-MES01-discrete,1,16.3614
Gear,GRBX02-MES01,1,3.045
Gear,GRBX02-MES01-discrete,1,16.9637
Brake,BRKDC01,1,0.1475,0.1002
Brake,BRKDC01-discrete,1,0.0431,0.1002
Brake,BRKNC01,1,2.0395,0.1002
Brake,BRKNC01-discrete,1,1.9482,0.1002
Brake,BRKNP01,0,9.6344,0.0823
Brake,BRKNP01-discrete,0,9.6608,0.0824
Random,rand01,1,8.1457
Random,rand02,0,31.5257
