benchmark,instance,result,time
Random,RAND01,1,9.4697
Random,RAND02,0,38.4302
Heat3D,HEAT01,1,0.17175
Heat3D,HEAT02,1,3.4451
Heat3D,HEAT03,1,246.6136
Beam,CBC01,1,0.22375
Beam,CBC02,1,2.5428
Beam,CBC03,1,39.0206
Beam,CBF01,1,0.43946
Beam,CBF02,1,4.5735
Beam,CBF03,1,69.3472
Spacestation,ISSC01-ISS02,1,0.2
Spacestation,ISSC01-ISU02,0,0.21512
Spacestation,ISSF01-ISS01,1,0.65976
Spacestation,ISSF01_ISU01,0,0.22182
Platoon,PLAA01-BND42,1,26.2734
Platoon,PLAA01-BND50,1,7.1729
Platoon,PLAD01-BND30,1,1.7756
Platoon,PLAD01-BND42,1,0.82671
Platoon,PLAN01-UNB50,0,106.5683
Rendezvous,SRA01,1,3.8662
Rendezvous,SRA02,1,4.1991
Rendezvous,SRA03,1,8.3721
Rendezvous,SRA04,1,15.0685
Rendezvous,SRA05,1,17.0981
Rendezvous,SRA01,1,17.4002
Rendezvous,SRA07,1,32.1457
Rendezvous,SRA08,1,83.05
Rendezvous,SRNA01,1,18.8289
Rendezvous,SRU01,0,13.8173
Rendezvous,SRU02,0,89.5284
Powertrain,DTN01,1,5.7796
Powertrain,DTN02,1,5.2428
Powertrain,DTN03,1,5.6295
Powertrain,DTN04,1,48.1133
Powertrain,DTN05,1,90.3019
Powertrain,DTN06,1,235.8225
Gearbox,GRBX01,1,1.4909
Gearbox,GRBX02,1,1.9704
Brake,BRKDC01,1,13.6037
Brake,BRKNC01,1,2.3349
Brake,BRKNP01,1,1.7355
