0;-719.246;-714.529;-719.187;-714.47
0.005;-780.461;-778.123;-780.471;-778.133
0.005;-719.187;-714.47;-719.144;-714.427
0.00860863;-780.471;-778.133;-780.478;-778.14
0.00860863;-719.144;-714.427;-719.067;-714.35
0.0151042;-780.478;-778.14;-780.491;-778.153
0.0151042;-719.067;-714.35;-718.987;-714.27
0.0219003;-780.491;-778.153;-780.505;-778.166
0.0219003;-718.987;-714.27;-718.908;-714.191
0.0285646;-780.505;-778.166;-780.518;-778.18
0.0285646;-718.908;-714.191;-718.83;-714.112
0.0352065;-780.518;-778.18;-780.531;-778.193
0.0352065;-718.83;-714.112;-718.752;-714.033
0.0418052;-780.531;-778.193;-780.545;-778.206
0.0418052;-718.752;-714.033;-718.674;-713.956
0.0483699;-780.545;-778.206;-780.558;-778.218
0.0483699;-718.674;-713.956;-718.597;-713.878
0.0549021;-780.558;-778.218;-780.571;-778.231
0.0549021;-718.597;-713.878;-718.52;-713.801
0.0614051;-780.571;-778.231;-780.584;-778.244
0.0614051;-718.52;-713.801;-718.444;-713.724
0.0678811;-780.584;-778.244;-780.597;-778.257
0.0678811;-718.444;-713.724;-718.368;-713.647
0.0743325;-780.597;-778.257;-780.61;-778.269
0.0743325;-718.368;-713.647;-718.292;-713.571
0.0807611;-780.61;-778.269;-780.623;-778.282
0.0807611;-718.292;-713.571;-718.216;-713.495
0.0871611;-780.623;-778.282;-780.636;-778.294
0.0871611;-718.216;-713.495;-718.141;-713.419
0.0935358;-780.636;-778.294;-780.649;-778.307
0.0935358;-718.141;-713.419;-718.066;-713.344
0.0998874;-780.649;-778.307;-780.662;-778.319
0.0998874;-718.066;-713.344;-718.065;-713.343
0.1;-780.662;-778.319;-780.662;-778.319
0.1;-718.065;-713.343;-718.006;-713.283
0.105;-780.662;-778.319;-780.673;-778.329
0.105;-718.006;-713.283;-717.967;-713.244
0.108299;-780.673;-778.329;-780.679;-778.336
0.108299;-717.967;-713.244;-717.897;-713.173
0.114237;-780.679;-778.336;-780.691;-778.347
0.114237;-717.897;-713.173;-717.822;-713.098
0.120584;-780.691;-778.347;-780.704;-778.36
0.120584;-717.822;-713.098;-717.749;-713.024
0.126817;-780.704;-778.36;-780.717;-778.372
0.126817;-717.749;-713.024;-717.675;-712.95
0.133042;-780.717;-778.372;-780.73;-778.384
0.133042;-717.675;-712.95;-717.602;-712.876
0.139239;-780.73;-778.384;-780.742;-778.396
0.139239;-717.602;-712.876;-717.53;-712.803
0.145413;-780.742;-778.396;-780.755;-778.408
0.145413;-717.53;-712.803;-717.457;-712.73
0.151565;-780.755;-778.408;-780.767;-778.42
0.151565;-717.457;-712.73;-717.385;-712.657
0.157696;-780.767;-778.42;-780.78;-778.432
0.157696;-717.385;-712.657;-717.313;-712.584
0.163802;-780.78;-778.432;-780.792;-778.444
0.163802;-717.313;-712.584;-717.241;-712.512
0.169886;-780.792;-778.444;-780.805;-778.456
0.169886;-717.241;-712.512;-717.17;-712.44
0.175948;-780.805;-778.456;-780.817;-778.467
0.175948;-717.17;-712.44;-717.099;-712.368
0.181987;-780.817;-778.467;-780.829;-778.479
0.181987;-717.099;-712.368;-717.028;-712.296
0.188004;-780.829;-778.479;-780.842;-778.491
0.188004;-717.028;-712.296;-716.957;-712.225
0.193998;-780.842;-778.491;-780.854;-778.503
0.193998;-716.957;-712.225;-716.887;-712.154
0.199972;-780.854;-778.503;-780.866;-778.514
0.199972;-716.887;-712.154;-716.886;-712.154
0.2;-780.866;-778.514;-780.866;-778.514
0.2;-716.886;-712.154;-716.828;-712.094
0.205;-780.866;-778.514;-780.876;-778.524
0.205;-716.828;-712.094;-716.756;-712.021
0.211105;-780.876;-778.524;-780.889;-778.536
0.211105;-716.756;-712.021;-716.686;-711.951
0.216992;-780.889;-778.536;-780.901;-778.547
0.216992;-716.686;-711.951;-716.617;-711.881
0.222889;-780.901;-778.547;-780.913;-778.559
0.222889;-716.617;-711.881;-716.548;-711.811
0.228761;-780.913;-778.559;-780.925;-778.57
0.228761;-716.548;-711.811;-716.479;-711.742
0.234614;-780.925;-778.57;-780.937;-778.581
0.234614;-716.479;-711.742;-716.41;-711.672
0.240448;-780.937;-778.581;-780.949;-778.593
0.240448;-716.41;-711.672;-716.342;-711.603
0.246264;-780.949;-778.593;-780.961;-778.604
0.246264;-716.342;-711.603;-716.273;-711.534
0.252062;-780.961;-778.604;-780.972;-778.615
0.252062;-716.273;-711.534;-716.205;-711.465
0.25784;-780.972;-778.615;-780.984;-778.627
0.25784;-716.205;-711.465;-716.137;-711.397
0.263595;-780.984;-778.627;-780.996;-778.638
0.263595;-716.137;-711.397;-716.07;-711.329
0.269332;-780.996;-778.638;-781.008;-778.649
0.269332;-716.07;-711.329;-716.003;-711.261
0.275049;-781.008;-778.649;-781.019;-778.66
0.275049;-716.003;-711.261;-715.936;-711.193
0.280748;-781.019;-778.66;-781.031;-778.671
0.280748;-715.936;-711.193;-715.869;-711.125
0.286427;-781.031;-778.671;-781.043;-778.682
0.286427;-715.869;-711.125;-715.802;-711.058
0.292086;-781.043;-778.682;-781.054;-778.693
0.292086;-715.802;-711.058;-715.736;-710.991
0.297723;-781.054;-778.693;-781.066;-778.704
0.297723;-715.736;-710.991;-715.709;-710.963
0.3;-781.066;-778.704;-781.071;-778.708
0.3;-715.709;-710.963;-715.65;-710.904
0.305;-781.071;-778.708;-781.081;-778.718
0.305;-715.65;-710.904;-715.583;-710.836
0.31068;-781.081;-778.718;-781.093;-778.729
0.31068;-715.583;-710.836;-715.518;-710.77
0.316241;-781.093;-778.729;-781.104;-778.74
0.316241;-715.518;-710.77;-715.452;-710.704
0.321798;-781.104;-778.74;-781.115;-778.75
0.321798;-715.452;-710.704;-715.387;-710.638
0.327337;-781.115;-778.75;-781.126;-778.761
0.327337;-715.387;-710.638;-715.322;-710.572
0.332859;-781.126;-778.761;-781.138;-778.772
0.332859;-715.322;-710.572;-715.257;-710.507
0.338365;-781.138;-778.772;-781.149;-778.782
0.338365;-715.257;-710.507;-715.193;-710.441
0.343856;-781.149;-778.782;-781.16;-778.793
0.343856;-715.193;-710.441;-715.128;-710.376
0.349334;-781.16;-778.793;-781.171;-778.804
0.349334;-715.128;-710.376;-715.064;-710.311
0.354799;-781.171;-778.804;-781.182;-778.814
0.354799;-715.064;-710.311;-715;-710.246
0.360248;-781.182;-778.814;-781.193;-778.825
0.360248;-715;-710.246;-714.936;-710.182
0.365685;-781.193;-778.825;-781.204;-778.835
0.365685;-714.936;-710.182;-714.872;-710.117
0.371109;-781.204;-778.835;-781.215;-778.846
0.371109;-714.872;-710.117;-714.808;-710.053
0.376518;-781.215;-778.846;-781.226;-778.856
0.376518;-714.808;-710.053;-714.745;-709.988
0.381914;-781.226;-778.856;-781.237;-778.867
0.381914;-714.745;-709.988;-714.681;-709.924
0.387297;-781.237;-778.867;-781.248;-778.877
0.387297;-714.681;-709.924;-714.618;-709.86
0.392667;-781.248;-778.877;-781.259;-778.888
0.392667;-714.618;-709.86;-714.555;-709.797
0.398023;-781.259;-778.888;-781.27;-778.898
0.398023;-714.555;-709.797;-714.532;-709.773
0.4;-781.27;-778.898;-781.274;-778.902
0.4;-714.532;-709.773;-714.473;-709.714
0.405;-781.274;-778.902;-781.284;-778.912
0.405;-714.473;-709.714;-714.41;-709.65
0.410367;-781.284;-778.912;-781.295;-778.922
0.410367;-714.41;-709.65;-714.348;-709.587
0.415676;-781.295;-778.922;-781.306;-778.932
0.415676;-714.348;-709.587;-714.285;-709.523
0.420978;-781.306;-778.932;-781.317;-778.943
0.420978;-714.285;-709.523;-714.223;-709.46
0.426265;-781.317;-778.943;-781.327;-778.953
0.426265;-714.223;-709.46;-714.161;-709.398
0.431539;-781.327;-778.953;-781.338;-778.963
0.431539;-714.161;-709.398;-714.099;-709.335
0.4368;-781.338;-778.963;-781.349;-778.973
0.4368;-714.099;-709.335;-714.037;-709.272
0.442048;-781.349;-778.973;-781.36;-778.983
0.442048;-714.037;-709.272;-713.976;-709.21
0.447281;-781.36;-778.983;-781.37;-778.993
0.447281;-713.976;-709.21;-713.914;-709.148
0.452499;-781.37;-778.993;-781.381;-779.003
0.452499;-713.914;-709.148;-713.853;-709.086
0.457704;-781.381;-779.003;-781.392;-779.013
0.457704;-713.853;-709.086;-713.792;-709.024
0.462894;-781.392;-779.013;-781.402;-779.023
0.462894;-713.792;-709.024;-713.731;-708.962
0.468069;-781.402;-779.023;-781.413;-779.033
0.468069;-713.731;-708.962;-713.671;-708.901
0.473228;-781.413;-779.033;-781.424;-779.043
0.473228;-713.671;-708.901;-713.61;-708.839
0.478372;-781.424;-779.043;-781.434;-779.053
0.478372;-713.61;-708.839;-713.55;-708.778
0.483501;-781.434;-779.053;-781.445;-779.063
0.483501;-713.55;-708.778;-713.49;-708.717
0.488614;-781.445;-779.063;-781.455;-779.073
0.488614;-713.49;-708.717;-713.43;-708.657
0.493712;-781.455;-779.073;-781.466;-779.083
0.493712;-713.43;-708.657;-713.37;-708.596
0.498794;-781.466;-779.083;-781.476;-779.093
0.498794;-713.37;-708.596;-713.356;-708.582
0.5;-781.476;-779.093;-781.479;-779.095
0.5;-713.356;-708.582;-713.297;-708.522
0.505;-781.479;-779.095;-781.489;-779.104
0.505;-713.297;-708.522;-713.238;-708.462
0.510055;-781.489;-779.104;-781.5;-779.114
0.510055;-713.238;-708.462;-713.179;-708.402
0.515088;-781.5;-779.114;-781.51;-779.124
0.515088;-713.179;-708.402;-713.12;-708.342
0.520102;-781.51;-779.124;-781.521;-779.133
0.520102;-713.12;-708.342;-713.061;-708.282
0.525099;-781.521;-779.133;-781.531;-779.143
0.525099;-713.061;-708.282;-713.003;-708.223
0.530079;-781.531;-779.143;-781.542;-779.152
0.530079;-713.003;-708.223;-712.944;-708.164
0.53504;-781.542;-779.152;-781.552;-779.162
0.53504;-712.944;-708.164;-712.886;-708.105
0.539981;-781.552;-779.162;-781.563;-779.171
0.539981;-712.886;-708.105;-712.829;-708.046
0.544904;-781.563;-779.171;-781.573;-779.181
0.544904;-712.829;-708.046;-712.771;-707.987
0.549808;-781.573;-779.181;-781.584;-779.19
0.549808;-712.771;-707.987;-712.714;-707.929
0.554693;-781.584;-779.19;-781.594;-779.199
0.554693;-712.714;-707.929;-712.657;-707.871
0.559561;-781.594;-779.199;-781.604;-779.208
0.559561;-712.657;-707.871;-712.6;-707.813
0.564409;-781.604;-779.208;-781.615;-779.218
0.564409;-712.6;-707.813;-712.543;-707.755
0.56924;-781.615;-779.218;-781.625;-779.227
0.56924;-712.543;-707.755;-712.486;-707.698
0.574053;-781.625;-779.227;-781.635;-779.236
0.574053;-712.486;-707.698;-712.43;-707.64
0.578848;-781.635;-779.236;-781.645;-779.245
0.578848;-712.43;-707.64;-712.374;-707.583
0.583627;-781.645;-779.245;-781.655;-779.254
0.583627;-712.374;-707.583;-712.318;-707.527
0.588391;-781.655;-779.254;-781.665;-779.263
0.588391;-712.318;-707.527;-712.262;-707.47
0.593138;-781.665;-779.263;-781.675;-779.272
0.593138;-712.262;-707.47;-712.207;-707.413
0.597871;-781.675;-779.272;-781.685;-779.281
0.597871;-712.207;-707.413;-712.182;-707.388
0.6;-781.685;-779.281;-781.69;-779.285
0.6;-712.182;-707.388;-712.152;-707.358
0.6025;-781.69;-779.285;-781.695;-779.29
0.6025;-712.152;-707.358;-712.1;-707.304
0.607;-781.695;-779.29;-781.705;-779.299
0.607;-712.1;-707.304;-712.044;-707.248
0.61171;-781.705;-779.299;-781.714;-779.308
0.61171;-712.044;-707.248;-711.989;-707.192
0.616388;-781.714;-779.308;-781.724;-779.317
0.616388;-711.989;-707.192;-711.934;-707.137
0.621056;-781.724;-779.317;-781.734;-779.325
0.621056;-711.934;-707.137;-711.88;-707.081
0.625712;-781.734;-779.325;-781.744;-779.334
0.625712;-711.88;-707.081;-711.825;-707.026
0.630356;-781.744;-779.334;-781.753;-779.343
0.630356;-711.825;-707.026;-711.771;-706.971
0.63499;-781.753;-779.343;-781.763;-779.352
0.63499;-711.771;-706.971;-711.716;-706.915
0.639612;-781.763;-779.352;-781.772;-779.361
0.639612;-711.716;-706.915;-711.662;-706.86
0.644224;-781.772;-779.361;-781.782;-779.37
0.644224;-711.662;-706.86;-711.608;-706.806
0.648826;-781.782;-779.37;-781.791;-779.379
0.648826;-711.608;-706.806;-711.554;-706.751
0.65342;-781.791;-779.379;-781.801;-779.387
0.65342;-711.554;-706.751;-711.5;-706.696
0.658005;-781.801;-779.387;-781.81;-779.396
0.658005;-711.5;-706.696;-711.446;-706.642
0.662581;-781.81;-779.396;-781.82;-779.405
0.662581;-711.446;-706.642;-711.393;-706.587
0.667149;-781.82;-779.405;-781.829;-779.414
0.667149;-711.393;-706.587;-711.339;-706.533
0.671709;-781.829;-779.414;-781.839;-779.423
0.671709;-711.339;-706.533;-711.286;-706.479
0.67626;-781.839;-779.423;-781.848;-779.431
0.67626;-711.286;-706.479;-711.232;-706.424
0.680804;-781.848;-779.431;-781.857;-779.44
0.680804;-711.232;-706.424;-711.179;-706.37
0.68534;-781.857;-779.44;-781.867;-779.449
0.68534;-711.179;-706.37;-711.126;-706.316
0.689869;-781.867;-779.449;-781.876;-779.458
0.689869;-711.126;-706.316;-711.073;-706.262
0.694392;-781.876;-779.458;-781.885;-779.466
0.694392;-711.073;-706.262;-711.019;-706.209
0.698907;-781.885;-779.466;-781.894;-779.475
0.698907;-711.019;-706.209;-711.007;-706.196
0.7;-781.894;-779.475;-781.897;-779.477
0.7;-711.007;-706.196;-710.977;-706.166
0.7025;-781.897;-779.477;-781.902;-779.482
0.7025;-710.977;-706.166;-710.924;-706.112
0.707;-781.902;-779.482;-781.911;-779.491
0.707;-710.924;-706.112;-710.872;-706.058
0.711499;-781.911;-779.491;-781.92;-779.499
0.711499;-710.872;-706.058;-710.819;-706.005
0.715993;-781.92;-779.499;-781.929;-779.508
0.715993;-710.819;-706.005;-710.766;-705.951
0.720481;-781.929;-779.508;-781.939;-779.517
0.720481;-710.766;-705.951;-710.713;-705.898
0.724963;-781.939;-779.517;-781.948;-779.525
0.724963;-710.713;-705.898;-710.661;-705.844
0.729441;-781.948;-779.525;-781.957;-779.534
0.729441;-710.661;-705.844;-710.608;-705.791
0.733913;-781.957;-779.534;-781.966;-779.543
0.733913;-710.608;-705.791;-710.556;-705.738
0.738377;-781.966;-779.543;-781.976;-779.551
0.738377;-710.556;-705.738;-710.503;-705.685
0.742833;-781.976;-779.551;-781.985;-779.56
0.742833;-710.503;-705.685;-710.451;-705.632
0.747282;-781.985;-779.56;-781.994;-779.568
0.747282;-710.451;-705.632;-710.399;-705.579
0.751723;-781.994;-779.568;-782.003;-779.577
0.751723;-710.399;-705.579;-710.347;-705.526
0.756156;-782.003;-779.577;-782.013;-779.585
0.756156;-710.347;-705.526;-710.295;-705.473
0.760581;-782.013;-779.585;-782.022;-779.594
0.760581;-710.295;-705.473;-710.243;-705.42
0.764999;-782.022;-779.594;-782.031;-779.602
0.764999;-710.243;-705.42;-710.191;-705.368
0.769408;-782.031;-779.602;-782.04;-779.611
0.769408;-710.191;-705.368;-710.14;-705.315
0.773808;-782.04;-779.611;-782.049;-779.619
0.773808;-710.14;-705.315;-710.088;-705.263
0.778201;-782.049;-779.619;-782.059;-779.627
0.778201;-710.088;-705.263;-710.037;-705.21
0.782582;-782.059;-779.627;-782.068;-779.636
0.782582;-710.037;-705.21;-709.985;-705.158
0.786954;-782.068;-779.636;-782.077;-779.644
0.786954;-709.985;-705.158;-709.934;-705.106
0.791316;-782.077;-779.644;-782.086;-779.652
0.791316;-709.934;-705.106;-709.883;-705.054
0.795668;-782.086;-779.652;-782.095;-779.661
0.795668;-709.883;-705.054;-709.832;-705.002
0.8;-782.095;-779.661;-782.105;-779.669
0.8;-709.832;-705.002;-709.803;-704.972
0.8025;-782.105;-779.669;-782.11;-779.674
0.8025;-709.803;-704.972;-709.751;-704.919
0.806954;-782.11;-779.674;-782.119;-779.682
0.806954;-709.751;-704.919;-709.7;-704.868
0.811258;-782.119;-779.682;-782.129;-779.69
0.811258;-709.7;-704.868;-709.65;-704.816
0.81556;-782.129;-779.69;-782.138;-779.698
0.81556;-709.65;-704.816;-709.6;-704.765
0.819851;-782.138;-779.698;-782.147;-779.707
0.819851;-709.6;-704.765;-709.549;-704.714
0.824129;-782.147;-779.707;-782.156;-779.715
0.824129;-709.549;-704.714;-709.499;-704.663
0.828395;-782.156;-779.715;-782.165;-779.723
0.828395;-709.499;-704.663;-709.449;-704.612
0.832649;-782.165;-779.723;-782.174;-779.731
0.832649;-709.449;-704.612;-709.4;-704.561
0.836891;-782.174;-779.731;-782.183;-779.739
0.836891;-709.4;-704.561;-709.35;-704.511
0.84112;-782.183;-779.739;-782.193;-779.747
0.84112;-709.35;-704.511;-709.301;-704.46
0.845338;-782.193;-779.747;-782.202;-779.755
0.845338;-709.301;-704.46;-709.251;-704.41
0.849544;-782.202;-779.755;-782.211;-779.763
0.849544;-709.251;-704.41;-709.202;-704.36
0.853738;-782.211;-779.763;-782.22;-779.771
0.853738;-709.202;-704.36;-709.153;-704.31
0.85792;-782.22;-779.771;-782.228;-779.779
0.85792;-709.153;-704.31;-709.104;-704.26
0.862091;-782.228;-779.779;-782.237;-779.787
0.862091;-709.104;-704.26;-709.055;-704.21
0.86625;-782.237;-779.787;-782.246;-779.795
0.86625;-709.055;-704.21;-709.007;-704.16
0.870398;-782.246;-779.795;-782.255;-779.802
0.870398;-709.007;-704.16;-708.958;-704.111
0.874535;-782.255;-779.802;-782.264;-779.81
0.874535;-708.958;-704.111;-708.91;-704.062
0.878661;-782.264;-779.81;-782.273;-779.818
0.878661;-708.91;-704.062;-708.862;-704.013
0.882775;-782.273;-779.818;-782.282;-779.826
0.882775;-708.862;-704.013;-708.814;-703.963
0.886878;-782.282;-779.826;-782.291;-779.834
0.886878;-708.814;-703.963;-708.766;-703.915
0.89097;-782.291;-779.834;-782.299;-779.841
0.89097;-708.766;-703.915;-708.718;-703.866
0.895051;-782.299;-779.841;-782.308;-779.849
0.895051;-708.718;-703.866;-708.67;-703.817
0.89912;-782.308;-779.849;-782.317;-779.856
0.89912;-708.67;-703.817;-708.66;-703.806
0.9;-782.317;-779.856;-782.319;-779.858
0.9;-708.66;-703.806;-708.631;-703.776
0.9025;-782.319;-779.858;-782.325;-779.863
0.9025;-708.631;-703.776;-708.582;-703.727
0.906617;-782.325;-779.863;-782.334;-779.87
0.906617;-708.582;-703.727;-708.535;-703.679
0.91062;-782.334;-779.87;-782.343;-779.878
0.91062;-708.535;-703.679;-708.489;-703.631
0.914606;-782.343;-779.878;-782.352;-779.885
0.914606;-708.489;-703.631;-708.442;-703.584
0.918571;-782.352;-779.885;-782.361;-779.892
0.918571;-708.442;-703.584;-708.396;-703.537
0.922517;-782.361;-779.892;-782.369;-779.9
0.922517;-708.396;-703.537;-708.35;-703.49
0.926447;-782.369;-779.9;-782.378;-779.907
0.926447;-708.35;-703.49;-708.304;-703.443
0.930363;-782.378;-779.907;-782.386;-779.914
0.930363;-708.304;-703.443;-708.258;-703.396
0.934265;-782.386;-779.914;-782.394;-779.921
0.934265;-708.258;-703.396;-708.213;-703.35
0.938155;-782.394;-779.921;-782.403;-779.929
0.938155;-708.213;-703.35;-708.167;-703.304
0.942034;-782.403;-779.929;-782.411;-779.936
0.942034;-708.167;-703.304;-708.122;-703.257
0.945904;-782.411;-779.936;-782.419;-779.943
0.945904;-708.122;-703.257;-708.076;-703.211
0.949766;-782.419;-779.943;-782.427;-779.951
0.949766;-708.076;-703.211;-708.031;-703.165
0.95362;-782.427;-779.951;-782.435;-779.958
0.95362;-708.031;-703.165;-707.986;-703.119
0.957468;-782.435;-779.958;-782.443;-779.965
0.957468;-707.986;-703.119;-707.941;-703.074
0.961311;-782.443;-779.965;-782.451;-779.972
0.961311;-707.941;-703.074;-707.896;-703.028
0.96515;-782.451;-779.972;-782.459;-779.98
0.96515;-707.896;-703.028;-707.851;-702.982
0.968985;-782.459;-779.98;-782.467;-779.987
0.968985;-707.851;-702.982;-707.806;-702.936
0.972818;-782.467;-779.987;-782.475;-779.994
0.972818;-707.806;-702.936;-707.761;-702.891
0.976648;-782.475;-779.994;-782.483;-780.002
0.976648;-707.761;-702.891;-707.716;-702.845
0.980477;-782.483;-780.002;-782.49;-780.009
0.980477;-707.716;-702.845;-707.671;-702.8
0.984304;-782.49;-780.009;-782.498;-780.016
0.984304;-707.671;-702.8;-707.626;-702.754
0.98813;-782.498;-780.016;-782.506;-780.024
0.98813;-707.626;-702.754;-707.581;-702.708
0.991956;-782.506;-780.024;-782.513;-780.031
0.991956;-707.581;-702.708;-707.536;-702.663
0.995781;-782.513;-780.031;-782.521;-780.038
0.995781;-707.536;-702.663;-707.491;-702.617
0.999602;-782.521;-780.038;-782.529;-780.046
0.999602;-707.491;-702.617;-707.486;-702.613
1;-782.529;-780.046;-782.53;-780.046
1;-707.486;-702.613;-707.457;-702.583
1.0025;-782.53;-780.046;-782.535;-780.051
1.0025;-707.457;-702.583;-707.411;-702.537
1.00639;-782.535;-780.051;-782.542;-780.059
1.00639;-707.411;-702.537;-707.367;-702.492
1.0102;-782.542;-780.059;-782.55;-780.066
1.0102;-707.367;-702.492;-707.322;-702.447
1.01401;-782.55;-780.066;-782.558;-780.073
1.01401;-707.322;-702.447;-707.278;-702.402
1.01783;-782.558;-780.073;-782.566;-780.081
1.01783;-707.278;-702.402;-707.233;-702.357
1.02165;-782.566;-780.081;-782.574;-780.088
1.02165;-707.233;-702.357;-707.189;-702.312
1.02547;-782.574;-780.088;-782.581;-780.095
1.02547;-707.189;-702.312;-707.145;-702.267
1.02929;-782.581;-780.095;-782.589;-780.102
1.02929;-707.145;-702.267;-707.101;-702.223
1.03312;-782.589;-780.102;-782.597;-780.109
1.03312;-707.101;-702.223;-707.057;-702.178
1.03695;-782.597;-780.109;-782.606;-780.116
1.03695;-707.057;-702.178;-707.013;-702.134
1.04079;-782.606;-780.116;-782.614;-780.124
1.04079;-707.013;-702.134;-706.97;-702.089
1.04463;-782.614;-780.124;-782.622;-780.131
1.04463;-706.97;-702.089;-706.926;-702.045
1.04848;-782.622;-780.131;-782.63;-780.138
1.04848;-706.926;-702.045;-706.882;-702.001
1.05233;-782.63;-780.138;-782.639;-780.145
1.05233;-706.882;-702.001;-706.839;-701.956
1.05619;-782.639;-780.145;-782.647;-780.152
1.05619;-706.839;-701.956;-706.795;-701.912
1.06005;-782.647;-780.152;-782.656;-780.159
1.06005;-706.795;-701.912;-706.752;-701.868
1.06392;-782.656;-780.159;-782.665;-780.166
1.06392;-706.752;-701.868;-706.709;-701.824
1.0678;-782.665;-780.166;-782.673;-780.173
1.0678;-706.709;-701.824;-706.665;-701.78
1.07168;-782.673;-780.173;-782.682;-780.18
1.07168;-706.665;-701.78;-706.622;-701.736
1.07557;-782.682;-780.18;-782.691;-780.188
1.07557;-706.622;-701.736;-706.579;-701.692
1.07946;-782.691;-780.188;-782.7;-780.195
1.07946;-706.579;-701.692;-706.536;-701.648
1.08336;-782.7;-780.195;-782.709;-780.202
1.08336;-706.536;-701.648;-706.493;-701.604
1.08727;-782.709;-780.202;-782.718;-780.209
1.08727;-706.493;-701.604;-706.45;-701.56
1.09118;-782.718;-780.209;-782.727;-780.216
1.09118;-706.45;-701.56;-706.407;-701.516
1.0951;-782.727;-780.216;-782.737;-780.223
1.0951;-706.407;-701.516;-706.364;-701.472
1.09903;-782.737;-780.223;-782.746;-780.23
1.09903;-706.364;-701.472;-706.354;-701.462
1.1;-782.746;-780.23;-782.749;-780.232
1.1;-706.354;-701.462;-706.327;-701.434
1.1025;-782.749;-780.232;-782.755;-780.236
1.1025;-706.327;-701.434;-706.283;-701.389
1.10658;-782.755;-780.236;-782.765;-780.244
1.10658;-706.283;-701.389;-706.24;-701.345
1.11055;-782.765;-780.244;-782.774;-780.251
1.11055;-706.24;-701.345;-706.197;-701.301
1.11454;-782.774;-780.251;-782.784;-780.258
1.11454;-706.197;-701.301;-706.154;-701.257
1.11852;-782.784;-780.258;-782.794;-780.265
1.11852;-706.154;-701.257;-706.112;-701.214
1.12249;-782.794;-780.265;-782.804;-780.272
1.12249;-706.112;-701.214;-706.069;-701.171
1.12644;-782.804;-780.272;-782.814;-780.279
1.12644;-706.069;-701.171;-706.028;-701.128
1.13039;-782.814;-780.279;-782.825;-780.286
1.13039;-706.028;-701.128;-705.986;-701.085
1.13433;-782.825;-780.286;-782.835;-780.293
1.13433;-705.986;-701.085;-705.944;-701.042
1.13826;-782.835;-780.293;-782.845;-780.3
1.13826;-705.944;-701.042;-705.903;-701
1.14218;-782.845;-780.3;-782.855;-780.307
1.14218;-705.903;-701;-705.862;-700.958
1.14609;-782.855;-780.307;-782.866;-780.314
1.14609;-705.862;-700.958;-705.822;-700.915
1.14999;-782.866;-780.314;-782.877;-780.321
1.14999;-705.822;-700.915;-705.782;-700.874
1.15388;-782.877;-780.321;-782.889;-780.327
1.15388;-705.782;-700.874;-705.742;-700.832
1.15775;-782.889;-780.327;-782.9;-780.334
1.15775;-705.742;-700.832;-705.702;-700.791
1.16161;-782.9;-780.334;-782.912;-780.34
1.16161;-705.702;-700.791;-705.663;-700.75
1.16544;-782.912;-780.34;-782.923;-780.347
1.16544;-705.663;-700.75;-705.624;-700.709
1.16925;-782.923;-780.347;-782.935;-780.353
1.16925;-705.624;-700.709;-705.585;-700.669
1.17305;-782.935;-780.353;-782.946;-780.36
1.17305;-705.585;-700.669;-705.547;-700.629
1.17682;-782.946;-780.36;-782.958;-780.366
1.17682;-705.547;-700.629;-705.509;-700.589
1.18058;-782.958;-780.366;-782.969;-780.372
1.18058;-705.509;-700.589;-705.471;-700.55
1.18432;-782.969;-780.372;-782.981;-780.379
1.18432;-705.471;-700.55;-705.434;-700.511
1.18805;-782.981;-780.379;-782.992;-780.385
1.18805;-705.434;-700.511;-705.397;-700.472
1.19176;-782.992;-780.385;-783.004;-780.391
1.19176;-705.397;-700.472;-705.36;-700.434
1.19545;-783.004;-780.391;-783.015;-780.398
1.19545;-705.36;-700.434;-705.323;-700.395
1.19913;-783.015;-780.398;-783.027;-780.404
1.19913;-705.323;-700.395;-705.315;-700.386
1.2;-783.027;-780.404;-783.03;-780.405
1.2;-705.315;-700.386;-705.29;-700.36
1.2025;-783.03;-780.405;-783.038;-780.41
1.2025;-705.29;-700.36;-705.252;-700.321
1.20632;-783.038;-780.41;-783.05;-780.416
1.20632;-705.252;-700.321;-705.216;-700.283
1.21003;-783.05;-780.416;-783.062;-780.423
1.21003;-705.216;-700.283;-705.179;-700.245
1.21373;-783.062;-780.423;-783.074;-780.429
1.21373;-705.179;-700.245;-705.143;-700.207
1.21742;-783.074;-780.429;-783.086;-780.435
1.21742;-705.143;-700.207;-705.108;-700.169
1.22109;-783.086;-780.435;-783.098;-780.442
1.22109;-705.108;-700.169;-705.072;-700.132
1.22474;-783.098;-780.442;-783.11;-780.448
1.22474;-705.072;-700.132;-705.037;-700.095
1.22838;-783.11;-780.448;-783.122;-780.454
1.22838;-705.037;-700.095;-705.002;-700.059
1.23201;-783.122;-780.454;-783.134;-780.46
1.23201;-705.002;-700.059;-704.967;-700.022
1.23562;-783.134;-780.46;-783.146;-780.467
1.23562;-704.967;-700.022;-704.933;-699.986
1.23922;-783.146;-780.467;-783.159;-780.473
1.23922;-704.933;-699.986;-704.899;-699.95
1.2428;-783.159;-780.473;-783.171;-780.479
1.2428;-704.899;-699.95;-704.865;-699.914
1.24637;-783.171;-780.479;-783.183;-780.485
1.24637;-704.865;-699.914;-704.831;-699.879
1.24992;-783.183;-780.485;-783.195;-780.491
1.24992;-704.831;-699.879;-704.798;-699.844
1.25346;-783.195;-780.491;-783.208;-780.497
1.25346;-704.798;-699.844;-704.765;-699.809
1.25699;-783.208;-780.497;-783.22;-780.504
1.25699;-704.765;-699.809;-704.732;-699.774
1.26051;-783.22;-780.504;-783.232;-780.51
1.26051;-704.732;-699.774;-704.699;-699.74
1.26401;-783.232;-780.51;-783.244;-780.516
1.26401;-704.699;-699.74;-704.666;-699.705
1.2675;-783.244;-780.516;-783.257;-780.522
1.2675;-704.666;-699.705;-704.634;-699.671
1.27098;-783.257;-780.522;-783.269;-780.528
1.27098;-704.634;-699.671;-704.602;-699.638
1.27444;-783.269;-780.528;-783.281;-780.534
1.27444;-704.602;-699.638;-704.57;-699.604
1.27789;-783.281;-780.534;-783.294;-780.54
1.27789;-704.57;-699.604;-704.539;-699.571
1.28133;-783.294;-780.54;-783.306;-780.546
1.28133;-704.539;-699.571;-704.507;-699.538
1.28476;-783.306;-780.546;-783.318;-780.552
1.28476;-704.507;-699.538;-704.476;-699.505
1.28817;-783.318;-780.552;-783.331;-780.558
1.28817;-704.476;-699.505;-704.445;-699.472
1.29158;-783.331;-780.558;-783.343;-780.564
1.29158;-704.445;-699.472;-704.414;-699.44
1.29497;-783.343;-780.564;-783.356;-780.571
1.29497;-704.414;-699.44;-704.384;-699.408
1.29835;-783.356;-780.571;-783.368;-780.577
1.29835;-704.384;-699.408;-704.369;-699.392
1.3;-783.368;-780.577;-783.374;-780.58
1.3;-704.369;-699.392;-704.346;-699.368
1.3025;-783.374;-780.58;-783.383;-780.584
1.3025;-704.346;-699.368;-704.315;-699.335
1.30599;-783.383;-780.584;-783.396;-780.59
1.30599;-704.315;-699.335;-704.285;-699.303
1.30941;-783.396;-780.59;-783.409;-780.596
1.30941;-704.285;-699.303;-704.254;-699.271
1.31282;-783.409;-780.596;-783.422;-780.602
1.31282;-704.254;-699.271;-704.224;-699.239
1.31622;-783.422;-780.602;-783.435;-780.608
1.31622;-704.224;-699.239;-704.195;-699.207
1.31959;-783.435;-780.608;-783.448;-780.614
1.31959;-704.195;-699.207;-704.165;-699.176
1.32294;-783.448;-780.614;-783.461;-780.62
1.32294;-704.165;-699.176;-704.136;-699.145
1.32628;-783.461;-780.62;-783.474;-780.626
1.32628;-704.136;-699.145;-704.107;-699.114
1.3296;-783.474;-780.626;-783.487;-780.632
1.3296;-704.107;-699.114;-704.078;-699.084
1.3329;-783.487;-780.632;-783.5;-780.638
1.3329;-704.078;-699.084;-704.05;-699.054
1.33618;-783.5;-780.638;-783.513;-780.644
1.33618;-704.05;-699.054;-704.021;-699.024
1.33945;-783.513;-780.644;-783.526;-780.65
1.33945;-704.021;-699.024;-703.993;-698.994
1.34271;-783.526;-780.65;-783.538;-780.656
1.34271;-703.993;-698.994;-703.965;-698.964
1.34596;-783.538;-780.656;-783.551;-780.662
1.34596;-703.965;-698.964;-703.938;-698.935
1.34919;-783.551;-780.662;-783.564;-780.668
1.34919;-703.938;-698.935;-703.91;-698.906
1.35242;-783.564;-780.668;-783.576;-780.674
1.35242;-703.91;-698.906;-703.883;-698.877
1.35563;-783.576;-780.674;-783.589;-780.68
1.35563;-703.883;-698.877;-703.856;-698.849
1.35883;-783.589;-780.68;-783.602;-780.686
1.35883;-703.856;-698.849;-703.829;-698.82
1.36202;-783.602;-780.686;-783.614;-780.692
1.36202;-703.829;-698.82;-703.802;-698.792
1.36521;-783.614;-780.692;-783.627;-780.698
1.36521;-703.802;-698.792;-703.775;-698.764
1.36838;-783.627;-780.698;-783.639;-780.704
1.36838;-703.775;-698.764;-703.749;-698.736
1.37155;-783.639;-780.704;-783.652;-780.71
1.37155;-703.749;-698.736;-703.722;-698.708
1.37471;-783.652;-780.71;-783.664;-780.716
1.37471;-703.722;-698.708;-703.696;-698.68
1.37786;-783.664;-780.716;-783.677;-780.722
1.37786;-703.696;-698.68;-703.67;-698.653
1.38101;-783.677;-780.722;-783.689;-780.728
1.38101;-703.67;-698.653;-703.644;-698.626
1.38415;-783.689;-780.728;-783.702;-780.734
1.38415;-703.644;-698.626;-703.618;-698.599
1.38728;-783.702;-780.734;-783.714;-780.74
1.38728;-703.618;-698.599;-703.592;-698.572
1.39041;-783.714;-780.74;-783.727;-780.746
1.39041;-703.592;-698.572;-703.567;-698.545
1.39353;-783.727;-780.746;-783.739;-780.752
1.39353;-703.567;-698.545;-703.541;-698.518
1.39665;-783.739;-780.752;-783.752;-780.759
1.39665;-703.541;-698.518;-703.516;-698.492
1.39976;-783.752;-780.759;-783.764;-780.765
1.39976;-703.516;-698.492;-703.514;-698.49
1.4;-783.764;-780.765;-783.765;-780.765
1.4;-703.514;-698.49;-703.494;-698.468
1.4025;-783.765;-780.765;-783.776;-780.77
1.4025;-703.494;-698.468;-703.468;-698.441
1.40571;-783.776;-780.77;-783.789;-780.776
1.40571;-703.468;-698.441;-703.442;-698.414
1.40887;-783.789;-780.776;-783.801;-780.783
1.40887;-703.442;-698.414;-703.417;-698.388
1.41203;-783.801;-780.783;-783.814;-780.789
1.41203;-703.417;-698.388;-703.392;-698.362
1.41518;-783.814;-780.789;-783.827;-780.795
1.41518;-703.392;-698.362;-703.367;-698.335
1.41832;-783.827;-780.795;-783.84;-780.801
1.41832;-703.367;-698.335;-703.342;-698.309
1.42146;-783.84;-780.801;-783.853;-780.808
1.42146;-703.342;-698.309;-703.317;-698.283
1.42459;-783.853;-780.808;-783.866;-780.814
1.42459;-703.317;-698.283;-703.292;-698.258
1.42771;-783.866;-780.814;-783.879;-780.82
1.42771;-703.292;-698.258;-703.268;-698.232
1.43082;-783.879;-780.82;-783.891;-780.826
1.43082;-703.268;-698.232;-703.244;-698.207
1.43393;-783.891;-780.826;-783.904;-780.833
1.43393;-703.244;-698.207;-703.219;-698.182
1.43702;-783.904;-780.833;-783.917;-780.839
1.43702;-703.219;-698.182;-703.195;-698.157
1.44011;-783.917;-780.839;-783.93;-780.845
1.44011;-703.195;-698.157;-703.172;-698.132
1.4432;-783.93;-780.845;-783.943;-780.852
1.4432;-703.172;-698.132;-703.148;-698.107
1.44627;-783.943;-780.852;-783.956;-780.858
1.44627;-703.148;-698.107;-703.124;-698.082
1.44934;-783.956;-780.858;-783.969;-780.864
1.44934;-703.124;-698.082;-703.101;-698.058
1.4524;-783.969;-780.864;-783.981;-780.87
1.4524;-703.101;-698.058;-703.077;-698.033
1.45545;-783.981;-780.87;-783.994;-780.877
1.45545;-703.077;-698.033;-703.054;-698.009
1.4585;-783.994;-780.877;-784.007;-780.883
1.4585;-703.054;-698.009;-703.031;-697.985
1.46153;-784.007;-780.883;-784.02;-780.889
1.46153;-703.031;-697.985;-703.008;-697.961
1.46457;-784.02;-780.889;-784.033;-780.896
1.46457;-703.008;-697.961;-702.985;-697.938
1.46759;-784.033;-780.896;-784.046;-780.902
1.46759;-702.985;-697.938;-702.963;-697.914
1.47061;-784.046;-780.902;-784.059;-780.908
1.47061;-702.963;-697.914;-702.94;-697.891
1.47363;-784.059;-780.908;-784.072;-780.915
1.47363;-702.94;-697.891;-702.918;-697.867
1.47664;-784.072;-780.915;-784.085;-780.921
1.47664;-702.918;-697.867;-702.896;-697.844
1.47964;-784.085;-780.921;-784.098;-780.927
1.47964;-702.896;-697.844;-702.873;-697.821
1.48264;-784.098;-780.927;-784.11;-780.933
1.48264;-702.873;-697.821;-702.851;-697.798
1.48563;-784.11;-780.933;-784.123;-780.94
1.48563;-702.851;-697.798;-702.829;-697.776
1.48862;-784.123;-780.94;-784.136;-780.946
1.48862;-702.829;-697.776;-702.808;-697.753
1.4916;-784.136;-780.946;-784.149;-780.952
1.4916;-702.808;-697.753;-702.786;-697.73
1.49457;-784.149;-780.952;-784.162;-780.959
1.49457;-702.786;-697.73;-702.764;-697.708
1.49755;-784.162;-780.959;-784.175;-780.965
1.49755;-702.764;-697.708;-702.746;-697.69
1.5;-784.175;-780.965;-784.186;-780.97
1.5;-702.746;-697.69;-702.728;-697.671
1.5025;-784.186;-780.97;-784.197;-780.976
1.5025;-702.728;-697.671;-702.707;-697.648
1.50551;-784.197;-780.976;-784.21;-780.982
1.50551;-702.707;-697.648;-702.685;-697.626
1.5085;-784.21;-780.982;-784.223;-780.989
1.5085;-702.685;-697.626;-702.664;-697.604
1.51148;-784.223;-780.989;-784.236;-780.995
1.51148;-702.664;-697.604;-702.642;-697.582
1.51446;-784.236;-780.995;-784.249;-781.002
1.51446;-702.642;-697.582;-702.621;-697.559
1.51744;-784.249;-781.002;-784.262;-781.008
1.51744;-702.621;-697.559;-702.599;-697.537
1.52041;-784.262;-781.008;-784.275;-781.015
1.52041;-702.599;-697.537;-702.578;-697.515
1.52337;-784.275;-781.015;-784.289;-781.022
1.52337;-702.578;-697.515;-702.557;-697.493
1.52634;-784.289;-781.022;-784.302;-781.028
1.52634;-702.557;-697.493;-702.535;-697.471
1.5293;-784.302;-781.028;-784.315;-781.035
1.5293;-702.535;-697.471;-702.514;-697.449
1.53225;-784.315;-781.035;-784.328;-781.042
1.53225;-702.514;-697.449;-702.493;-697.427
1.53521;-784.328;-781.042;-784.342;-781.049
1.53521;-702.493;-697.427;-702.472;-697.405
1.53816;-784.342;-781.049;-784.355;-781.055
1.53816;-702.472;-697.405;-702.45;-697.384
1.54111;-784.355;-781.055;-784.368;-781.062
1.54111;-702.45;-697.384;-702.429;-697.362
1.54405;-784.368;-781.062;-784.382;-781.069
1.54405;-702.429;-697.362;-702.408;-697.34
1.54699;-784.382;-781.069;-784.395;-781.076
1.54699;-702.408;-697.34;-702.387;-697.318
1.54993;-784.395;-781.076;-784.409;-781.083
1.54993;-702.387;-697.318;-702.366;-697.297
1.55286;-784.409;-781.083;-784.422;-781.09
1.55286;-702.366;-697.297;-702.345;-697.275
1.5558;-784.422;-781.09;-784.435;-781.097
1.5558;-702.345;-697.275;-702.324;-697.253
1.55873;-784.435;-781.097;-784.449;-781.104
1.55873;-702.324;-697.253;-702.303;-697.232
1.56165;-784.449;-781.104;-784.462;-781.111
1.56165;-702.303;-697.232;-702.282;-697.21
1.56458;-784.462;-781.111;-784.476;-781.118
1.56458;-702.282;-697.21;-702.262;-697.189
1.5675;-784.476;-781.118;-784.49;-781.125
1.5675;-702.262;-697.189;-702.241;-697.167
1.57042;-784.49;-781.125;-784.503;-781.132
1.57042;-702.241;-697.167;-702.22;-697.146
1.57333;-784.503;-781.132;-784.517;-781.139
1.57333;-702.22;-697.146;-702.199;-697.125
1.57625;-784.517;-781.139;-784.53;-781.146
1.57625;-702.199;-697.125;-702.179;-697.103
1.57915;-784.53;-781.146;-784.544;-781.154
1.57915;-702.179;-697.103;-702.158;-697.082
1.58206;-784.544;-781.154;-784.558;-781.161
1.58206;-702.158;-697.082;-702.137;-697.061
1.58496;-784.558;-781.161;-784.572;-781.168
1.58496;-702.137;-697.061;-702.117;-697.04
1.58786;-784.572;-781.168;-784.585;-781.175
1.58786;-702.117;-697.04;-702.096;-697.018
1.59076;-784.585;-781.175;-784.599;-781.183
1.59076;-702.096;-697.018;-702.076;-696.997
1.59366;-784.599;-781.183;-784.613;-781.19
1.59366;-702.076;-696.997;-702.055;-696.976
1.59655;-784.613;-781.19;-784.627;-781.197
1.59655;-702.055;-696.976;-702.035;-696.955
1.59944;-784.627;-781.197;-784.641;-781.205
1.59944;-702.035;-696.955;-702.031;-696.951
1.6;-784.641;-781.205;-784.643;-781.206
1.6;-702.031;-696.951;-702.013;-696.933
1.6025;-784.643;-781.206;-784.656;-781.212
1.6025;-702.013;-696.933;-701.993;-696.912
1.60538;-784.656;-781.212;-784.67;-781.22
1.60538;-701.993;-696.912;-701.973;-696.891
1.60822;-784.67;-781.22;-784.684;-781.227
1.60822;-701.973;-696.891;-701.953;-696.87
1.61106;-784.684;-781.227;-784.698;-781.234
1.61106;-701.953;-696.87;-701.933;-696.849
1.61389;-784.698;-781.234;-784.712;-781.241
1.61389;-701.933;-696.849;-701.913;-696.829
1.61671;-784.712;-781.241;-784.725;-781.249
1.61671;-701.913;-696.829;-701.894;-696.808
1.61951;-784.725;-781.249;-784.739;-781.256
1.61951;-701.894;-696.808;-701.874;-696.788
1.62232;-784.739;-781.256;-784.753;-781.263
1.62232;-701.874;-696.788;-701.854;-696.768
1.62511;-784.753;-781.263;-784.767;-781.271
1.62511;-701.854;-696.768;-701.835;-696.748
1.62789;-784.767;-781.271;-784.781;-781.278
1.62789;-701.835;-696.748;-701.816;-696.727
1.63067;-784.781;-781.278;-784.795;-781.285
1.63067;-701.816;-696.727;-701.796;-696.707
1.63344;-784.795;-781.285;-784.809;-781.292
1.63344;-701.796;-696.707;-701.777;-696.687
1.63621;-784.809;-781.292;-784.823;-781.3
1.63621;-701.777;-696.687;-701.758;-696.667
1.63896;-784.823;-781.3;-784.837;-781.307
1.63896;-701.758;-696.667;-701.739;-696.647
1.64171;-784.837;-781.307;-784.852;-781.314
1.64171;-701.739;-696.647;-701.72;-696.627
1.64445;-784.852;-781.314;-784.866;-781.321
1.64445;-701.72;-696.627;-701.701;-696.607
1.64719;-784.866;-781.321;-784.88;-781.329
1.64719;-701.701;-696.607;-701.682;-696.587
1.64992;-784.88;-781.329;-784.894;-781.336
1.64992;-701.682;-696.587;-701.663;-696.567
1.65264;-784.894;-781.336;-784.908;-781.343
1.65264;-701.663;-696.567;-701.644;-696.548
1.65536;-784.908;-781.343;-784.922;-781.351
1.65536;-701.644;-696.548;-701.625;-696.528
1.65807;-784.922;-781.351;-784.936;-781.358
1.65807;-701.625;-696.528;-701.606;-696.509
1.66078;-784.936;-781.358;-784.95;-781.366
1.66078;-701.606;-696.509;-701.588;-696.489
1.66348;-784.95;-781.366;-784.963;-781.373
1.66348;-701.588;-696.489;-701.569;-696.47
1.66618;-784.963;-781.373;-784.977;-781.381
1.66618;-701.569;-696.47;-701.55;-696.451
1.66887;-784.977;-781.381;-784.991;-781.388
1.66887;-701.55;-696.451;-701.532;-696.431
1.67156;-784.991;-781.388;-785.005;-781.396
1.67156;-701.532;-696.431;-701.513;-696.412
1.67424;-785.005;-781.396;-785.019;-781.403
1.67424;-701.513;-696.412;-701.495;-696.393
1.67693;-785.019;-781.403;-785.033;-781.411
1.67693;-701.495;-696.393;-701.476;-696.374
1.67961;-785.033;-781.411;-785.047;-781.418
1.67961;-701.476;-696.374;-701.458;-696.355
1.68228;-785.047;-781.418;-785.061;-781.426
1.68228;-701.458;-696.355;-701.439;-696.336
1.68495;-785.061;-781.426;-785.075;-781.434
1.68495;-701.439;-696.336;-701.421;-696.317
1.68762;-785.075;-781.434;-785.088;-781.441
1.68762;-701.421;-696.317;-701.402;-696.298
1.69029;-785.088;-781.441;-785.102;-781.449
1.69029;-701.402;-696.298;-701.384;-696.279
1.69295;-785.102;-781.449;-785.116;-781.457
1.69295;-701.384;-696.279;-701.366;-696.26
1.69561;-785.116;-781.457;-785.13;-781.465
1.69561;-701.366;-696.26;-701.347;-696.241
1.69827;-785.13;-781.465;-785.144;-781.473
1.69827;-701.347;-696.241;-701.335;-696.229
1.7;-785.144;-781.473;-785.153;-781.478
1.7;-701.335;-696.229;-701.318;-696.211
1.7025;-785.153;-781.478;-785.166;-781.485
1.7025;-701.318;-696.211;-701.3;-696.193
1.70514;-785.166;-781.485;-785.18;-781.493
1.70514;-701.3;-696.193;-701.282;-696.174
1.70777;-785.18;-781.493;-785.193;-781.501
1.70777;-701.282;-696.174;-701.264;-696.156
1.7104;-785.193;-781.501;-785.207;-781.509
1.7104;-701.264;-696.156;-701.246;-696.137
1.71303;-785.207;-781.509;-785.221;-781.516
1.71303;-701.246;-696.137;-701.227;-696.119
1.71565;-785.221;-781.516;-785.235;-781.524
1.71565;-701.227;-696.119;-701.209;-696.101
1.71827;-785.235;-781.524;-785.248;-781.532
1.71827;-701.209;-696.101;-701.192;-696.082
1.72089;-785.248;-781.532;-785.262;-781.54
1.72089;-701.192;-696.082;-701.174;-696.064
1.7235;-785.262;-781.54;-785.276;-781.548
1.7235;-701.174;-696.064;-701.156;-696.046
1.72611;-785.276;-781.548;-785.29;-781.556
1.72611;-701.156;-696.046;-701.138;-696.028
1.72872;-785.29;-781.556;-785.304;-781.564
1.72872;-701.138;-696.028;-701.12;-696.01
1.73132;-785.304;-781.564;-785.317;-781.572
1.73132;-701.12;-696.01;-701.102;-695.992
1.73392;-785.317;-781.572;-785.331;-781.58
1.73392;-701.102;-695.992;-701.084;-695.974
1.73652;-785.331;-781.58;-785.345;-781.588
1.73652;-701.084;-695.974;-701.067;-695.956
1.73911;-785.345;-781.588;-785.359;-781.597
1.73911;-701.067;-695.956;-701.049;-695.938
1.7417;-785.359;-781.597;-785.373;-781.605
1.7417;-701.049;-695.938;-701.031;-695.92
1.74429;-785.373;-781.605;-785.387;-781.613
1.74429;-701.031;-695.92;-701.014;-695.902
1.74687;-785.387;-781.613;-785.4;-781.621
1.74687;-701.014;-695.902;-700.996;-695.884
1.74946;-785.4;-781.621;-785.414;-781.629
1.74946;-700.996;-695.884;-700.979;-695.866
1.75203;-785.414;-781.629;-785.428;-781.637
1.75203;-700.979;-695.866;-700.961;-695.848
1.75461;-785.428;-781.637;-785.442;-781.645
1.75461;-700.961;-695.848;-700.943;-695.831
1.75718;-785.442;-781.645;-785.456;-781.654
1.75718;-700.943;-695.831;-700.926;-695.813
1.75975;-785.456;-781.654;-785.47;-781.662
1.75975;-700.926;-695.813;-700.909;-695.795
1.76232;-785.47;-781.662;-785.484;-781.67
1.76232;-700.909;-695.795;-700.891;-695.778
1.76488;-785.484;-781.67;-785.498;-781.678
1.76488;-700.891;-695.778;-700.874;-695.76
1.76745;-785.498;-781.678;-785.511;-781.687
1.76745;-700.874;-695.76;-700.857;-695.742
1.77001;-785.511;-781.687;-785.525;-781.695
1.77001;-700.857;-695.742;-700.839;-695.725
1.77256;-785.525;-781.695;-785.539;-781.703
1.77256;-700.839;-695.725;-700.822;-695.707
1.77512;-785.539;-781.703;-785.553;-781.712
1.77512;-700.822;-695.707;-700.805;-695.69
1.77767;-785.553;-781.712;-785.567;-781.72
1.77767;-700.805;-695.69;-700.788;-695.672
1.78021;-785.567;-781.72;-785.581;-781.728
1.78021;-700.788;-695.672;-700.771;-695.655
1.78276;-785.581;-781.728;-785.595;-781.737
1.78276;-700.771;-695.655;-700.753;-695.638
1.7853;-785.595;-781.737;-785.609;-781.745
1.7853;-700.753;-695.638;-700.736;-695.62
1.78784;-785.609;-781.745;-785.623;-781.754
1.78784;-700.736;-695.62;-700.719;-695.603
1.79037;-785.623;-781.754;-785.637;-781.762
1.79037;-700.719;-695.603;-700.702;-695.586
1.79291;-785.637;-781.762;-785.651;-781.77
1.79291;-700.702;-695.586;-700.685;-695.569
1.79544;-785.651;-781.77;-785.665;-781.779
1.79544;-700.685;-695.569;-700.668;-695.551
1.79796;-785.665;-781.779;-785.679;-781.787
1.79796;-700.668;-695.551;-700.655;-695.538
1.8;-785.679;-781.787;-785.691;-781.794
1.8;-700.655;-695.538;-700.638;-695.521
1.8025;-785.691;-781.794;-785.705;-781.803
1.8025;-700.638;-695.521;-700.621;-695.504
1.80501;-785.705;-781.803;-785.719;-781.811
1.80501;-700.621;-695.504;-700.604;-695.487
1.80751;-785.719;-781.811;-785.733;-781.82
1.80751;-700.604;-695.487;-700.587;-695.47
1.81001;-785.733;-781.82;-785.747;-781.828
1.81001;-700.587;-695.47;-700.571;-695.453
1.81251;-785.747;-781.828;-785.761;-781.837
1.81251;-700.571;-695.453;-700.554;-695.436
1.815;-785.761;-781.837;-785.775;-781.845
1.815;-700.554;-695.436;-700.537;-695.419
1.81749;-785.775;-781.845;-785.789;-781.854
1.81749;-700.537;-695.419;-700.521;-695.403
1.81998;-785.789;-781.854;-785.803;-781.862
1.81998;-700.521;-695.403;-700.504;-695.386
1.82247;-785.803;-781.862;-785.817;-781.871
1.82247;-700.504;-695.386;-700.487;-695.369
1.82495;-785.817;-781.871;-785.831;-781.88
1.82495;-700.487;-695.369;-700.471;-695.353
1.82744;-785.831;-781.88;-785.845;-781.888
1.82744;-700.471;-695.353;-700.454;-695.336
1.82992;-785.845;-781.888;-785.859;-781.897
1.82992;-700.454;-695.336;-700.438;-695.32
1.83239;-785.859;-781.897;-785.873;-781.906
1.83239;-700.438;-695.32;-700.421;-695.303
1.83487;-785.873;-781.906;-785.887;-781.914
1.83487;-700.421;-695.303;-700.405;-695.287
1.83734;-785.887;-781.914;-785.901;-781.923
1.83734;-700.405;-695.287;-700.388;-695.27
1.83981;-785.901;-781.923;-785.916;-781.932
1.83981;-700.388;-695.27;-700.372;-695.254
1.84228;-785.916;-781.932;-785.93;-781.94
1.84228;-700.372;-695.254;-700.356;-695.237
1.84474;-785.93;-781.94;-785.944;-781.949
1.84474;-700.356;-695.237;-700.339;-695.221
1.8472;-785.944;-781.949;-785.958;-781.958
1.8472;-700.339;-695.221;-700.323;-695.204
1.84966;-785.958;-781.958;-785.972;-781.966
1.84966;-700.323;-695.204;-700.307;-695.188
1.85212;-785.972;-781.966;-785.986;-781.975
1.85212;-700.307;-695.188;-700.291;-695.172
1.85457;-785.986;-781.975;-786.001;-781.984
1.85457;-700.291;-695.172;-700.274;-695.156
1.85701;-786.001;-781.984;-786.015;-781.993
1.85701;-700.274;-695.156;-700.258;-695.14
1.85945;-786.015;-781.993;-786.029;-782.001
1.85945;-700.258;-695.14;-700.242;-695.124
1.86188;-786.029;-782.001;-786.043;-782.01
1.86188;-700.242;-695.124;-700.226;-695.108
1.86431;-786.043;-782.01;-786.057;-782.019
1.86431;-700.226;-695.108;-700.21;-695.092
1.86674;-786.057;-782.019;-786.071;-782.028
1.86674;-700.21;-695.092;-700.194;-695.076
1.86916;-786.071;-782.028;-786.085;-782.037
1.86916;-700.194;-695.076;-700.178;-695.06
1.87158;-786.085;-782.037;-786.099;-782.046
1.87158;-700.178;-695.06;-700.162;-695.045
1.87399;-786.099;-782.046;-786.113;-782.054
1.87399;-700.162;-695.045;-700.146;-695.029
1.8764;-786.113;-782.054;-786.127;-782.063
1.8764;-700.146;-695.029;-700.13;-695.014
1.87881;-786.127;-782.063;-786.14;-782.072
1.87881;-700.13;-695.014;-700.114;-694.998
1.88121;-786.14;-782.072;-786.154;-782.081
1.88121;-700.114;-694.998;-700.098;-694.983
1.88361;-786.154;-782.081;-786.168;-782.09
1.88361;-700.098;-694.983;-700.082;-694.967
1.88601;-786.168;-782.09;-786.182;-782.099
1.88601;-700.082;-694.967;-700.067;-694.952
1.88841;-786.182;-782.099;-786.196;-782.108
1.88841;-700.067;-694.952;-700.051;-694.936
1.89081;-786.196;-782.108;-786.21;-782.117
1.89081;-700.051;-694.936;-700.035;-694.921
1.8932;-786.21;-782.117;-786.223;-782.126
1.8932;-700.035;-694.921;-700.019;-694.906
1.89559;-786.223;-782.126;-786.237;-782.135
1.89559;-700.019;-694.906;-700.003;-694.891
1.89798;-786.237;-782.135;-786.251;-782.144
1.89798;-700.003;-694.891;-699.99;-694.878
1.9;-786.251;-782.144;-786.263;-782.152
1.9;-699.99;-694.878;-699.982;-694.87
1.90125;-786.263;-782.152;-786.27;-782.157
1.90125;-699.982;-694.87;-699.967;-694.856
1.9035;-786.27;-782.157;-786.283;-782.166
1.9035;-699.967;-694.856;-699.951;-694.841
1.90588;-786.283;-782.166;-786.297;-782.175
1.90588;-699.951;-694.841;-699.935;-694.826
1.90825;-786.297;-782.175;-786.31;-782.184
1.90825;-699.935;-694.826;-699.92;-694.811
1.91062;-786.31;-782.184;-786.324;-782.193
1.91062;-699.92;-694.811;-699.904;-694.796
1.91299;-786.324;-782.193;-786.338;-782.202
1.91299;-699.904;-694.796;-699.889;-694.781
1.91536;-786.338;-782.202;-786.351;-782.211
1.91536;-699.889;-694.781;-699.873;-694.766
1.91773;-786.351;-782.211;-786.365;-782.221
1.91773;-699.873;-694.766;-699.857;-694.751
1.9201;-786.365;-782.221;-786.379;-782.23
1.9201;-699.857;-694.751;-699.842;-694.737
1.92247;-786.379;-782.23;-786.392;-782.239
1.92247;-699.842;-694.737;-699.826;-694.722
1.92484;-786.392;-782.239;-786.406;-782.249
1.92484;-699.826;-694.722;-699.811;-694.707
1.9272;-786.406;-782.249;-786.42;-782.258
1.9272;-699.811;-694.707;-699.795;-694.692
1.92957;-786.42;-782.258;-786.434;-782.267
1.92957;-699.795;-694.692;-699.78;-694.678
1.93193;-786.434;-782.267;-786.448;-782.277
1.93193;-699.78;-694.678;-699.764;-694.663
1.9343;-786.448;-782.277;-786.462;-782.286
1.9343;-699.764;-694.663;-699.749;-694.648
1.93666;-786.462;-782.286;-786.476;-782.295
1.93666;-699.749;-694.648;-699.733;-694.633
1.93902;-786.476;-782.295;-786.49;-782.304
1.93902;-699.733;-694.633;-699.718;-694.618
1.94139;-786.49;-782.304;-786.504;-782.314
1.94139;-699.718;-694.618;-699.703;-694.603
1.94375;-786.504;-782.314;-786.519;-782.323
1.94375;-699.703;-694.603;-699.687;-694.589
1.94611;-786.519;-782.323;-786.533;-782.333
1.94611;-699.687;-694.589;-699.672;-694.574
1.94847;-786.533;-782.333;-786.547;-782.342
1.94847;-699.672;-694.574;-699.657;-694.559
1.95083;-786.547;-782.342;-786.561;-782.351
1.95083;-699.657;-694.559;-699.641;-694.545
1.95319;-786.561;-782.351;-786.575;-782.361
1.95319;-699.641;-694.545;-699.626;-694.53
1.95554;-786.575;-782.361;-786.589;-782.37
1.95554;-699.626;-694.53;-699.611;-694.515
1.9579;-786.589;-782.37;-786.603;-782.38
1.9579;-699.611;-694.515;-699.595;-694.501
1.96026;-786.603;-782.38;-786.617;-782.39
1.96026;-699.595;-694.501;-699.58;-694.486
1.96262;-786.617;-782.39;-786.632;-782.399
1.96262;-699.58;-694.486;-699.565;-694.472
1.96498;-786.632;-782.399;-786.646;-782.409
1.96498;-699.565;-694.472;-699.55;-694.457
1.96733;-786.646;-782.409;-786.66;-782.418
1.96733;-699.55;-694.457;-699.534;-694.443
1.96969;-786.66;-782.418;-786.674;-782.428
1.96969;-699.534;-694.443;-699.519;-694.429
1.97204;-786.674;-782.428;-786.688;-782.438
1.97204;-699.519;-694.429;-699.504;-694.414
1.97439;-786.688;-782.438;-786.702;-782.447
1.97439;-699.504;-694.414;-699.489;-694.4
1.97674;-786.702;-782.447;-786.716;-782.457
1.97674;-699.489;-694.4;-699.473;-694.386
1.97909;-786.716;-782.457;-786.73;-782.467
1.97909;-699.473;-694.386;-699.458;-694.371
1.98144;-786.73;-782.467;-786.745;-782.477
1.98144;-699.458;-694.371;-699.443;-694.357
1.98379;-786.745;-782.477;-786.759;-782.486
1.98379;-699.443;-694.357;-699.428;-694.343
1.98614;-786.759;-782.486;-786.773;-782.496
1.98614;-699.428;-694.343;-699.413;-694.329
1.98848;-786.773;-782.496;-786.787;-782.506
1.98848;-699.413;-694.329;-699.398;-694.315
1.99083;-786.787;-782.506;-786.801;-782.516
1.99083;-699.398;-694.315;-699.383;-694.301
1.99318;-786.801;-782.516;-786.815;-782.526
1.99318;-699.383;-694.301;-699.367;-694.287
1.99552;-786.815;-782.526;-786.83;-782.536
1.99552;-699.367;-694.287;-699.352;-694.273
1.99787;-786.83;-782.536;-786.844;-782.546
1.99787;-699.352;-694.273;-699.339;-694.26
2;-786.844;-782.546;-786.857;-782.555
2;-699.339;-694.26;-699.331;-694.252
2.00125;-786.857;-782.555;-786.864;-782.56
2.00125;-699.331;-694.252;-699.316;-694.239
2.0035;-786.864;-782.56;-786.878;-782.57
2.0035;-699.316;-694.239;-699.301;-694.225
2.00584;-786.878;-782.57;-786.892;-782.58
2.00584;-699.301;-694.225;-699.286;-694.211
2.00818;-786.892;-782.58;-786.906;-782.59
2.00818;-699.286;-694.211;-699.271;-694.197
2.01052;-786.906;-782.59;-786.921;-782.6
2.01052;-699.271;-694.197;-699.256;-694.183
2.01286;-786.921;-782.6;-786.935;-782.61
2.01286;-699.256;-694.183;-699.241;-694.169
2.0152;-786.935;-782.61;-786.949;-782.62
2.0152;-699.241;-694.169;-699.226;-694.155
2.01754;-786.949;-782.62;-786.963;-782.63
2.01754;-699.226;-694.155;-699.211;-694.141
2.01988;-786.963;-782.63;-786.977;-782.64
2.01988;-699.211;-694.141;-699.196;-694.127
2.02222;-786.977;-782.64;-786.991;-782.65
2.02222;-699.196;-694.127;-699.181;-694.114
2.02457;-786.991;-782.65;-787.006;-782.66
2.02457;-699.181;-694.114;-699.166;-694.1
2.02691;-787.006;-782.66;-787.02;-782.671
2.02691;-699.166;-694.1;-699.151;-694.086
2.02926;-787.02;-782.671;-787.034;-782.681
2.02926;-699.151;-694.086;-699.136;-694.072
2.03161;-787.034;-782.681;-787.048;-782.691
2.03161;-699.136;-694.072;-699.121;-694.058
2.03395;-787.048;-782.691;-787.062;-782.701
2.03395;-699.121;-694.058;-699.106;-694.044
2.0363;-787.062;-782.701;-787.077;-782.712
2.0363;-699.106;-694.044;-699.091;-694.03
2.03865;-787.077;-782.712;-787.091;-782.722
2.03865;-699.091;-694.03;-699.076;-694.017
2.04101;-787.091;-782.722;-787.105;-782.733
2.04101;-699.076;-694.017;-699.061;-694.003
2.04336;-787.105;-782.733;-787.119;-782.743
2.04336;-699.061;-694.003;-699.046;-693.989
2.04571;-787.119;-782.743;-787.133;-782.753
2.04571;-699.046;-693.989;-699.031;-693.975
2.04807;-787.133;-782.753;-787.148;-782.764
2.04807;-699.031;-693.975;-699.016;-693.961
2.05043;-787.148;-782.764;-787.162;-782.774
2.05043;-699.016;-693.961;-699.001;-693.947
2.05279;-787.162;-782.774;-787.176;-782.785
2.05279;-699.001;-693.947;-698.986;-693.934
2.05515;-787.176;-782.785;-787.19;-782.796
2.05515;-698.986;-693.934;-698.971;-693.92
2.05751;-787.19;-782.796;-787.205;-782.806
2.05751;-698.971;-693.92;-698.956;-693.906
2.05987;-787.205;-782.806;-787.219;-782.817
2.05987;-698.956;-693.906;-698.942;-693.892
2.06223;-787.219;-782.817;-787.233;-782.827
2.06223;-698.942;-693.892;-698.927;-693.878
2.0646;-787.233;-782.827;-787.248;-782.838
2.0646;-698.927;-693.878;-698.912;-693.864
2.06697;-787.248;-782.838;-787.262;-782.849
2.06697;-698.912;-693.864;-698.897;-693.851
2.06934;-787.262;-782.849;-787.276;-782.86
2.06934;-698.897;-693.851;-698.882;-693.837
2.07171;-787.276;-782.86;-787.29;-782.87
2.07171;-698.882;-693.837;-698.867;-693.823
2.07408;-787.29;-782.87;-787.305;-782.881
2.07408;-698.867;-693.823;-698.852;-693.809
2.07645;-787.305;-782.881;-787.319;-782.892
2.07645;-698.852;-693.809;-698.837;-693.795
2.07883;-787.319;-782.892;-787.333;-782.903
2.07883;-698.837;-693.795;-698.822;-693.782
2.0812;-787.333;-782.903;-787.348;-782.914
2.0812;-698.822;-693.782;-698.807;-693.768
2.08358;-787.348;-782.914;-787.362;-782.925
2.08358;-698.807;-693.768;-698.792;-693.754
2.08596;-787.362;-782.925;-787.376;-782.935
2.08596;-698.792;-693.754;-698.777;-693.74
2.08834;-787.376;-782.935;-787.391;-782.946
2.08834;-698.777;-693.74;-698.762;-693.726
2.09072;-787.391;-782.946;-787.405;-782.957
2.09072;-698.762;-693.726;-698.747;-693.713
2.09311;-787.405;-782.957;-787.42;-782.968
2.09311;-698.747;-693.713;-698.732;-693.699
2.0955;-787.42;-782.968;-787.434;-782.979
2.0955;-698.732;-693.699;-698.717;-693.685
2.09788;-787.434;-782.979;-787.448;-782.99
2.09788;-698.717;-693.685;-698.704;-693.673
2.1;-787.448;-782.99;-787.461;-783
2.1;-698.704;-693.673;-698.688;-693.658
2.1025;-787.461;-783;-787.476;-783.012
2.1025;-698.688;-693.658;-698.673;-693.644
2.10489;-787.476;-783.012;-787.491;-783.023
2.10489;-698.673;-693.644;-698.658;-693.63
2.10729;-787.491;-783.023;-787.505;-783.034
2.10729;-698.658;-693.63;-698.643;-693.616
2.10969;-787.505;-783.034;-787.52;-783.045
2.10969;-698.643;-693.616;-698.628;-693.602
2.11209;-787.52;-783.045;-787.534;-783.057
2.11209;-698.628;-693.602;-698.613;-693.589
2.11449;-787.534;-783.057;-787.549;-783.068
2.11449;-698.613;-693.589;-698.599;-693.575
2.1169;-787.549;-783.068;-787.563;-783.079
2.1169;-698.599;-693.575;-698.584;-693.561
2.1193;-787.563;-783.079;-787.578;-783.091
2.1193;-698.584;-693.561;-698.569;-693.547
2.12171;-787.578;-783.091;-787.592;-783.102
2.12171;-698.569;-693.547;-698.554;-693.533
2.12412;-787.592;-783.102;-787.607;-783.113
2.12412;-698.554;-693.533;-698.539;-693.519
2.12653;-787.607;-783.113;-787.621;-783.125
2.12653;-698.539;-693.519;-698.524;-693.505
2.12893;-787.621;-783.125;-787.636;-783.136
2.12893;-698.524;-693.505;-698.509;-693.491
2.13134;-787.636;-783.136;-787.65;-783.147
2.13134;-698.509;-693.491;-698.494;-693.477
2.13374;-787.65;-783.147;-787.665;-783.159
2.13374;-698.494;-693.477;-698.479;-693.463
2.13615;-787.665;-783.159;-787.679;-783.17
2.13615;-698.479;-693.463;-698.465;-693.449
2.13855;-787.679;-783.17;-787.694;-783.181
2.13855;-698.465;-693.449;-698.45;-693.436
2.14095;-787.694;-783.181;-787.708;-783.193
2.14095;-698.45;-693.436;-698.435;-693.422
2.14335;-787.708;-783.193;-787.722;-783.204
2.14335;-698.435;-693.422;-698.42;-693.408
2.14575;-787.722;-783.204;-787.737;-783.216
2.14575;-698.42;-693.408;-698.405;-693.394
2.14815;-787.737;-783.216;-787.751;-783.227
2.14815;-698.405;-693.394;-698.39;-693.381
2.15055;-787.751;-783.227;-787.765;-783.239
2.15055;-698.39;-693.381;-698.376;-693.367
2.15295;-787.765;-783.239;-787.78;-783.25
2.15295;-698.376;-693.367;-698.361;-693.353
2.15535;-787.78;-783.25;-787.794;-783.262
2.15535;-698.361;-693.353;-698.346;-693.34
2.15775;-787.794;-783.262;-787.808;-783.274
2.15775;-698.346;-693.34;-698.331;-693.326
2.16015;-787.808;-783.274;-787.822;-783.285
2.16015;-698.331;-693.326;-698.316;-693.312
2.16255;-787.822;-783.285;-787.837;-783.297
2.16255;-698.316;-693.312;-698.302;-693.299
2.16495;-787.837;-783.297;-787.851;-783.309
2.16495;-698.302;-693.299;-698.287;-693.285
2.16735;-787.851;-783.309;-787.865;-783.32
2.16735;-698.287;-693.285;-698.272;-693.272
2.16976;-787.865;-783.32;-787.879;-783.332
2.16976;-698.272;-693.272;-698.257;-693.258
2.17216;-787.879;-783.332;-787.894;-783.344
2.17216;-698.257;-693.258;-698.242;-693.245
2.17457;-787.894;-783.344;-787.908;-783.356
2.17457;-698.242;-693.245;-698.227;-693.231
2.17698;-787.908;-783.356;-787.922;-783.368
2.17698;-698.227;-693.231;-698.213;-693.217
2.17939;-787.922;-783.368;-787.937;-783.379
2.17939;-698.213;-693.217;-698.198;-693.203
2.18181;-787.937;-783.379;-787.951;-783.391
2.18181;-698.198;-693.203;-698.183;-693.189
2.18422;-787.951;-783.391;-787.966;-783.403
2.18422;-698.183;-693.189;-698.169;-693.175
2.18663;-787.966;-783.403;-787.981;-783.414
2.18663;-698.169;-693.175;-698.154;-693.161
2.18905;-787.981;-783.414;-787.995;-783.426
2.18905;-698.154;-693.161;-698.139;-693.147
2.19146;-787.995;-783.426;-788.01;-783.438
2.19146;-698.139;-693.147;-698.125;-693.133
2.19388;-788.01;-783.438;-788.024;-783.45
2.19388;-698.125;-693.133;-698.11;-693.119
2.1963;-788.024;-783.45;-788.039;-783.462
2.1963;-698.11;-693.119;-698.095;-693.105
2.19872;-788.039;-783.462;-788.053;-783.473
2.19872;-698.095;-693.105;-698.087;-693.098
2.2;-788.053;-783.473;-788.061;-783.48
2.2;-698.087;-693.098;-698.072;-693.084
2.2025;-788.061;-783.48;-788.076;-783.492
2.2025;-698.072;-693.084;-698.058;-693.07
2.20493;-788.076;-783.492;-788.091;-783.504
2.20493;-698.058;-693.07;-698.043;-693.056
2.20736;-788.091;-783.504;-788.105;-783.516
2.20736;-698.043;-693.056;-698.028;-693.042
2.20979;-788.105;-783.516;-788.12;-783.528
2.20979;-698.028;-693.042;-698.013;-693.028
2.21223;-788.12;-783.528;-788.134;-783.54
2.21223;-698.013;-693.028;-697.998;-693.014
2.21467;-788.134;-783.54;-788.149;-783.552
2.21467;-697.998;-693.014;-697.984;-693
2.21711;-788.149;-783.552;-788.163;-783.564
2.21711;-697.984;-693;-697.969;-692.986
2.21955;-788.163;-783.564;-788.178;-783.577
2.21955;-697.969;-692.986;-697.954;-692.972
2.22199;-788.178;-783.577;-788.192;-783.589
2.22199;-697.954;-692.972;-697.939;-692.959
2.22444;-788.192;-783.589;-788.207;-783.601
2.22444;-697.939;-692.959;-697.924;-692.945
2.22688;-788.207;-783.601;-788.221;-783.613
2.22688;-697.924;-692.945;-697.909;-692.931
2.22933;-788.221;-783.613;-788.236;-783.626
2.22933;-697.909;-692.931;-697.895;-692.917
2.23178;-788.236;-783.626;-788.25;-783.638
2.23178;-697.895;-692.917;-697.88;-692.903
2.23424;-788.25;-783.638;-788.265;-783.65
2.23424;-697.88;-692.903;-697.865;-692.889
2.23669;-788.265;-783.65;-788.28;-783.662
2.23669;-697.865;-692.889;-697.85;-692.875
2.23915;-788.28;-783.662;-788.294;-783.675
2.23915;-697.85;-692.875;-697.835;-692.861
2.2416;-788.294;-783.675;-788.309;-783.687
2.2416;-697.835;-692.861;-697.82;-692.847
2.24406;-788.309;-783.687;-788.323;-783.7
2.24406;-697.82;-692.847;-697.806;-692.833
2.24652;-788.323;-783.7;-788.338;-783.712
2.24652;-697.806;-692.833;-697.791;-692.819
2.24898;-788.338;-783.712;-788.352;-783.725
2.24898;-697.791;-692.819;-697.776;-692.805
2.25143;-788.352;-783.725;-788.367;-783.737
2.25143;-697.776;-692.805;-697.761;-692.792
2.25389;-788.367;-783.737;-788.381;-783.749
2.25389;-697.761;-692.792;-697.746;-692.778
2.25635;-788.381;-783.749;-788.395;-783.762
2.25635;-697.746;-692.778;-697.731;-692.764
2.25881;-788.395;-783.762;-788.41;-783.774
2.25881;-697.731;-692.764;-697.716;-692.75
2.26127;-788.41;-783.774;-788.424;-783.787
2.26127;-697.716;-692.75;-697.702;-692.736
2.26373;-788.424;-783.787;-788.439;-783.799
2.26373;-697.702;-692.736;-697.687;-692.722
2.26619;-788.439;-783.799;-788.453;-783.812
2.26619;-697.687;-692.722;-697.672;-692.708
2.26865;-788.453;-783.812;-788.468;-783.825
2.26865;-697.672;-692.708;-697.657;-692.694
2.27111;-788.468;-783.825;-788.482;-783.837
2.27111;-697.657;-692.694;-697.642;-692.68
2.27358;-788.482;-783.837;-788.497;-783.85
2.27358;-697.642;-692.68;-697.628;-692.666
2.27604;-788.497;-783.85;-788.511;-783.862
2.27604;-697.628;-692.666;-697.613;-692.652
2.2785;-788.511;-783.862;-788.525;-783.875
2.2785;-697.613;-692.652;-697.598;-692.638
2.28097;-788.525;-783.875;-788.54;-783.888
2.28097;-697.598;-692.638;-697.583;-692.624
2.28343;-788.54;-783.888;-788.554;-783.9
2.28343;-697.583;-692.624;-697.568;-692.61
2.2859;-788.554;-783.9;-788.569;-783.913
2.2859;-697.568;-692.61;-697.553;-692.596
2.28836;-788.569;-783.913;-788.583;-783.926
2.28836;-697.553;-692.596;-697.539;-692.582
2.29083;-788.583;-783.926;-788.598;-783.938
2.29083;-697.539;-692.582;-697.524;-692.568
2.2933;-788.598;-783.938;-788.612;-783.951
2.2933;-697.524;-692.568;-697.509;-692.554
2.29577;-788.612;-783.951;-788.626;-783.964
2.29577;-697.509;-692.554;-697.494;-692.54
2.29824;-788.626;-783.964;-788.641;-783.976
2.29824;-697.494;-692.54;-697.484;-692.53
2.3;-788.641;-783.976;-788.651;-783.985
2.3;-697.484;-692.53;-697.469;-692.516
2.3025;-788.651;-783.985;-788.666;-783.998
2.3025;-697.469;-692.516;-697.454;-692.502
2.30498;-788.666;-783.998;-788.68;-784.011
2.30498;-697.454;-692.502;-697.439;-692.488
2.30746;-788.68;-784.011;-788.695;-784.024
2.30746;-697.439;-692.488;-697.424;-692.474
2.30994;-788.695;-784.024;-788.709;-784.037
2.30994;-697.424;-692.474;-697.41;-692.46
2.31242;-788.709;-784.037;-788.724;-784.05
2.31242;-697.41;-692.46;-697.395;-692.446
2.31491;-788.724;-784.05;-788.738;-784.063
2.31491;-697.395;-692.446;-697.38;-692.432
2.31739;-788.738;-784.063;-788.753;-784.075
2.31739;-697.38;-692.432;-697.365;-692.418
2.31988;-788.753;-784.075;-788.767;-784.088
2.31988;-697.365;-692.418;-697.35;-692.403
2.32237;-788.767;-784.088;-788.782;-784.101
2.32237;-697.35;-692.403;-697.335;-692.389
2.32486;-788.782;-784.101;-788.796;-784.114
2.32486;-697.335;-692.389;-697.321;-692.375
2.32735;-788.796;-784.114;-788.811;-784.127
2.32735;-697.321;-692.375;-697.306;-692.361
2.32984;-788.811;-784.127;-788.825;-784.14
2.32984;-697.306;-692.361;-697.291;-692.347
2.33233;-788.825;-784.14;-788.84;-784.153
2.33233;-697.291;-692.347;-697.276;-692.332
2.33483;-788.84;-784.153;-788.854;-784.166
2.33483;-697.276;-692.332;-697.261;-692.318
2.33733;-788.854;-784.166;-788.869;-784.179
2.33733;-697.261;-692.318;-697.246;-692.304
2.33982;-788.869;-784.179;-788.883;-784.192
2.33982;-697.246;-692.304;-697.232;-692.29
2.34232;-788.883;-784.192;-788.898;-784.205
2.34232;-697.232;-692.29;-697.217;-692.275
2.34482;-788.898;-784.205;-788.912;-784.218
2.34482;-697.217;-692.275;-697.202;-692.261
2.34733;-788.912;-784.218;-788.927;-784.231
2.34733;-697.202;-692.261;-697.187;-692.247
2.34983;-788.927;-784.231;-788.941;-784.244
2.34983;-697.187;-692.247;-697.172;-692.232
2.35234;-788.941;-784.244;-788.956;-784.257
2.35234;-697.172;-692.232;-697.157;-692.218
2.35485;-788.956;-784.257;-788.97;-784.27
2.35485;-697.157;-692.218;-697.143;-692.203
2.35735;-788.97;-784.27;-788.985;-784.283
2.35735;-697.143;-692.203;-697.128;-692.189
2.35986;-788.985;-784.283;-788.999;-784.296
2.35986;-697.128;-692.189;-697.113;-692.175
2.36238;-788.999;-784.296;-789.014;-784.31
2.36238;-697.113;-692.175;-697.098;-692.16
2.36489;-789.014;-784.31;-789.028;-784.323
2.36489;-697.098;-692.16;-697.083;-692.146
2.3674;-789.028;-784.323;-789.043;-784.336
2.3674;-697.083;-692.146;-697.068;-692.131
2.36992;-789.043;-784.336;-789.058;-784.349
2.36992;-697.068;-692.131;-697.054;-692.117
2.37244;-789.058;-784.349;-789.072;-784.362
2.37244;-697.054;-692.117;-697.039;-692.102
2.37496;-789.072;-784.362;-789.087;-784.375
2.37496;-697.039;-692.102;-697.024;-692.088
2.37748;-789.087;-784.375;-789.101;-784.389
2.37748;-697.024;-692.088;-697.009;-692.073
2.38;-789.101;-784.389;-789.116;-784.402
2.38;-697.009;-692.073;-696.994;-692.058
2.38252;-789.116;-784.402;-789.131;-784.415
2.38252;-696.994;-692.058;-696.979;-692.044
2.38504;-789.131;-784.415;-789.145;-784.428
2.38504;-696.979;-692.044;-696.965;-692.029
2.38757;-789.145;-784.428;-789.16;-784.441
2.38757;-696.965;-692.029;-696.95;-692.014
2.39009;-789.16;-784.441;-789.175;-784.454
2.39009;-696.95;-692.014;-696.935;-692
2.39261;-789.175;-784.454;-789.189;-784.467
2.39261;-696.935;-692;-696.921;-691.985
2.39512;-789.189;-784.467;-789.204;-784.48
2.39512;-696.921;-691.985;-696.906;-691.97
2.39763;-789.204;-784.48;-789.219;-784.494
2.39763;-696.906;-691.97;-696.892;-691.956
2.4;-789.219;-784.494;-789.232;-784.506
2.4;-696.892;-691.956;-696.877;-691.942
2.4025;-789.232;-784.506;-789.247;-784.519
2.4025;-696.877;-691.942;-696.863;-691.927
2.405;-789.247;-784.519;-789.261;-784.532
2.405;-696.863;-691.927;-696.848;-691.912
2.4075;-789.261;-784.532;-789.276;-784.545
2.4075;-696.848;-691.912;-696.834;-691.898
2.40999;-789.276;-784.545;-789.29;-784.558
2.40999;-696.834;-691.898;-696.819;-691.883
2.41249;-789.29;-784.558;-789.305;-784.571
2.41249;-696.819;-691.883;-696.805;-691.869
2.41497;-789.305;-784.571;-789.319;-784.584
2.41497;-696.805;-691.869;-696.79;-691.854
2.41746;-789.319;-784.584;-789.333;-784.597
2.41746;-696.79;-691.854;-696.776;-691.84
2.41995;-789.333;-784.597;-789.348;-784.61
2.41995;-696.776;-691.84;-696.761;-691.825
2.42243;-789.348;-784.61;-789.362;-784.623
2.42243;-696.761;-691.825;-696.747;-691.811
2.42491;-789.362;-784.623;-789.376;-784.636
2.42491;-696.747;-691.811;-696.732;-691.796
2.42739;-789.376;-784.636;-789.39;-784.649
2.42739;-696.732;-691.796;-696.718;-691.782
2.42987;-789.39;-784.649;-789.404;-784.662
2.42987;-696.718;-691.782;-696.703;-691.767
2.43235;-789.404;-784.662;-789.419;-784.676
2.43235;-696.703;-691.767;-696.689;-691.753
2.43483;-789.419;-784.676;-789.433;-784.689
2.43483;-696.689;-691.753;-696.674;-691.738
2.43731;-789.433;-784.689;-789.447;-784.702
2.43731;-696.674;-691.738;-696.66;-691.724
2.43979;-789.447;-784.702;-789.461;-784.715
2.43979;-696.66;-691.724;-696.645;-691.709
2.44227;-789.461;-784.715;-789.475;-784.728
2.44227;-696.645;-691.709;-696.631;-691.695
2.44474;-789.475;-784.728;-789.489;-784.741
2.44474;-696.631;-691.695;-696.616;-691.68
2.44722;-789.489;-784.741;-789.503;-784.754
2.44722;-696.616;-691.68;-696.602;-691.666
2.4497;-789.503;-784.754;-789.517;-784.767
2.4497;-696.602;-691.666;-696.587;-691.651
2.45218;-789.517;-784.767;-789.531;-784.78
2.45218;-696.587;-691.651;-696.573;-691.637
2.45467;-789.531;-784.78;-789.545;-784.793
2.45467;-696.573;-691.637;-696.558;-691.622
2.45715;-789.545;-784.793;-789.559;-784.806
2.45715;-696.558;-691.622;-696.544;-691.607
2.45964;-789.559;-784.806;-789.574;-784.819
2.45964;-696.544;-691.607;-696.53;-691.592
2.46212;-789.574;-784.819;-789.588;-784.832
2.46212;-696.53;-691.592;-696.515;-691.577
2.46461;-789.588;-784.832;-789.602;-784.845
2.46461;-696.515;-691.577;-696.501;-691.562
2.46709;-789.602;-784.845;-789.617;-784.858
2.46709;-696.501;-691.562;-696.486;-691.547
2.46958;-789.617;-784.858;-789.631;-784.872
2.46958;-696.486;-691.547;-696.472;-691.532
2.47207;-789.631;-784.872;-789.645;-784.885
2.47207;-696.472;-691.532;-696.458;-691.517
2.47456;-789.645;-784.885;-789.659;-784.898
2.47456;-696.458;-691.517;-696.443;-691.502
2.47706;-789.659;-784.898;-789.674;-784.911
2.47706;-696.443;-691.502;-696.429;-691.487
2.47955;-789.674;-784.911;-789.688;-784.924
2.47955;-696.429;-691.487;-696.414;-691.472
2.48204;-789.688;-784.924;-789.702;-784.937
2.48204;-696.414;-691.472;-696.4;-691.457
2.48454;-789.702;-784.937;-789.716;-784.95
2.48454;-696.4;-691.457;-696.385;-691.442
2.48704;-789.716;-784.95;-789.73;-784.963
2.48704;-696.385;-691.442;-696.371;-691.427
2.48953;-789.73;-784.963;-789.745;-784.977
2.48953;-696.371;-691.427;-696.356;-691.412
2.49204;-789.745;-784.977;-789.759;-784.99
2.49204;-696.356;-691.412;-696.342;-691.397
2.49454;-789.759;-784.99;-789.773;-785.003
2.49454;-696.342;-691.397;-696.327;-691.382
2.49704;-789.773;-785.003;-789.787;-785.016
2.49704;-696.327;-691.382;-696.313;-691.367
2.49955;-789.787;-785.016;-789.801;-785.029
2.49955;-696.313;-691.367;-696.31;-691.364
2.5;-789.801;-785.029;-789.804;-785.032
2.5;-696.31;-691.364;-696.296;-691.349
2.5025;-789.804;-785.032;-789.818;-785.045
2.5025;-696.296;-691.349;-696.281;-691.334
2.50502;-789.818;-785.045;-789.832;-785.058
2.50502;-696.281;-691.334;-696.266;-691.319
2.50754;-789.832;-785.058;-789.846;-785.072
2.50754;-696.266;-691.319;-696.252;-691.303
2.51006;-789.846;-785.072;-789.86;-785.085
2.51006;-696.252;-691.303;-696.237;-691.288
2.51257;-789.86;-785.085;-789.874;-785.098
2.51257;-696.237;-691.288;-696.222;-691.273
2.51509;-789.874;-785.098;-789.888;-785.112
2.51509;-696.222;-691.273;-696.208;-691.258
2.5176;-789.888;-785.112;-789.902;-785.125
2.5176;-696.208;-691.258;-696.193;-691.243
2.52011;-789.902;-785.125;-789.916;-785.138
2.52011;-696.193;-691.243;-696.179;-691.228
2.52261;-789.916;-785.138;-789.93;-785.152
2.52261;-696.179;-691.228;-696.164;-691.213
2.52512;-789.93;-785.152;-789.944;-785.165
2.52512;-696.164;-691.213;-696.149;-691.198
2.52762;-789.944;-785.165;-789.958;-785.178
2.52762;-696.149;-691.198;-696.135;-691.183
2.53012;-789.958;-785.178;-789.972;-785.191
2.53012;-696.135;-691.183;-696.12;-691.168
2.53262;-789.972;-785.191;-789.986;-785.205
2.53262;-696.12;-691.168;-696.106;-691.153
2.53512;-789.986;-785.205;-790;-785.218
2.53512;-696.106;-691.153;-696.091;-691.138
2.53762;-790;-785.218;-790.014;-785.231
2.53762;-696.091;-691.138;-696.077;-691.123
2.54011;-790.014;-785.231;-790.028;-785.244
2.54011;-696.077;-691.123;-696.062;-691.108
2.5426;-790.028;-785.244;-790.042;-785.258
2.5426;-696.062;-691.108;-696.048;-691.093
2.5451;-790.042;-785.258;-790.056;-785.271
2.5451;-696.048;-691.093;-696.033;-691.078
2.54759;-790.056;-785.271;-790.07;-785.284
2.54759;-696.033;-691.078;-696.019;-691.063
2.55008;-790.07;-785.284;-790.084;-785.297
2.55008;-696.019;-691.063;-696.005;-691.048
2.55256;-790.084;-785.297;-790.098;-785.31
2.55256;-696.005;-691.048;-695.99;-691.033
2.55505;-790.098;-785.31;-790.111;-785.324
2.55505;-695.99;-691.033;-695.976;-691.018
2.55754;-790.111;-785.324;-790.125;-785.337
2.55754;-695.976;-691.018;-695.961;-691.003
2.56002;-790.125;-785.337;-790.139;-785.35
2.56002;-695.961;-691.003;-695.947;-690.988
2.5625;-790.139;-785.35;-790.153;-785.363
2.5625;-695.947;-690.988;-695.933;-690.973
2.56499;-790.153;-785.363;-790.167;-785.376
2.56499;-695.933;-690.973;-695.919;-690.958
2.56746;-790.167;-785.376;-790.181;-785.39
2.56746;-695.919;-690.958;-695.905;-690.943
2.56994;-790.181;-785.39;-790.195;-785.403
2.56994;-695.905;-690.943;-695.891;-690.928
2.57241;-790.195;-785.403;-790.208;-785.416
2.57241;-695.891;-690.928;-695.877;-690.912
2.57488;-790.208;-785.416;-790.222;-785.429
2.57488;-695.877;-690.912;-695.862;-690.897
2.57734;-790.222;-785.429;-790.236;-785.442
2.57734;-695.862;-690.897;-695.848;-690.882
2.57981;-790.236;-785.442;-790.25;-785.455
2.57981;-695.848;-690.882;-695.834;-690.867
2.58227;-790.25;-785.455;-790.263;-785.468
2.58227;-695.834;-690.867;-695.82;-690.852
2.58472;-790.263;-785.468;-790.277;-785.481
2.58472;-695.82;-690.852;-695.806;-690.837
2.58718;-790.277;-785.481;-790.291;-785.494
2.58718;-695.806;-690.837;-695.792;-690.822
2.58963;-790.291;-785.494;-790.304;-785.507
2.58963;-695.792;-690.822;-695.778;-690.807
2.59208;-790.304;-785.507;-790.318;-785.52
2.59208;-695.778;-690.807;-695.764;-690.792
2.59453;-790.318;-785.52;-790.332;-785.533
2.59453;-695.764;-690.792;-695.75;-690.777
2.59697;-790.332;-785.533;-790.345;-785.546
2.59697;-695.75;-690.777;-695.737;-690.763
2.59941;-790.345;-785.546;-790.359;-785.559
2.59941;-695.737;-690.763;-695.733;-690.759
2.6;-790.359;-785.559;-790.362;-785.562
2.6;-695.733;-690.759;-695.719;-690.744
2.6025;-790.362;-785.562;-790.376;-785.576
2.6025;-695.719;-690.744;-695.705;-690.729
2.60493;-790.376;-785.576;-790.39;-785.589
2.60493;-695.705;-690.729;-695.691;-690.714
2.60737;-790.39;-785.589;-790.404;-785.602
2.60737;-695.691;-690.714;-695.677;-690.699
2.6098;-790.404;-785.602;-790.417;-785.614
2.6098;-695.677;-690.699;-695.663;-690.684
2.61223;-790.417;-785.614;-790.431;-785.627
2.61223;-695.663;-690.684;-695.649;-690.669
2.61466;-790.431;-785.627;-790.444;-785.64
2.61466;-695.649;-690.669;-695.636;-690.655
2.61709;-790.444;-785.64;-790.458;-785.653
2.61709;-695.636;-690.655;-695.622;-690.64
2.61952;-790.458;-785.653;-790.471;-785.666
2.61952;-695.622;-690.64;-695.608;-690.625
2.62194;-790.471;-785.666;-790.485;-785.679
2.62194;-695.608;-690.625;-695.594;-690.61
2.62436;-790.485;-785.679;-790.499;-785.692
2.62436;-695.594;-690.61;-695.58;-690.595
2.62678;-790.499;-785.692;-790.512;-785.705
2.62678;-695.58;-690.595;-695.566;-690.581
2.6292;-790.512;-785.705;-790.526;-785.717
2.6292;-695.566;-690.581;-695.552;-690.566
2.63162;-790.526;-785.717;-790.539;-785.73
2.63162;-695.552;-690.566;-695.539;-690.551
2.63404;-790.539;-785.73;-790.553;-785.743
2.63404;-695.539;-690.551;-695.525;-690.536
2.63645;-790.553;-785.743;-790.566;-785.756
2.63645;-695.525;-690.536;-695.511;-690.521
2.63887;-790.566;-785.756;-790.58;-785.769
2.63887;-695.511;-690.521;-695.497;-690.507
2.64128;-790.58;-785.769;-790.593;-785.782
2.64128;-695.497;-690.507;-695.483;-690.492
2.64369;-790.593;-785.782;-790.607;-785.794
2.64369;-695.483;-690.492;-695.47;-690.477
2.6461;-790.607;-785.794;-790.62;-785.807
2.6461;-695.47;-690.477;-695.456;-690.463
2.64851;-790.62;-785.807;-790.634;-785.82
2.64851;-695.456;-690.463;-695.442;-690.448
2.65091;-790.634;-785.82;-790.647;-785.833
2.65091;-695.442;-690.448;-695.428;-690.433
2.65332;-790.647;-785.833;-790.661;-785.845
2.65332;-695.428;-690.433;-695.415;-690.418
2.65572;-790.661;-785.845;-790.674;-785.858
2.65572;-695.415;-690.418;-695.401;-690.404
2.65813;-790.674;-785.858;-790.688;-785.871
2.65813;-695.401;-690.404;-695.387;-690.389
2.66053;-790.688;-785.871;-790.701;-785.884
2.66053;-695.387;-690.389;-695.373;-690.374
2.66292;-790.701;-785.884;-790.715;-785.896
2.66292;-695.373;-690.374;-695.36;-690.36
2.66532;-790.715;-785.896;-790.728;-785.909
2.66532;-695.36;-690.36;-695.346;-690.345
2.66772;-790.728;-785.909;-790.742;-785.922
2.66772;-695.346;-690.345;-695.332;-690.33
2.67011;-790.742;-785.922;-790.755;-785.934
2.67011;-695.332;-690.33;-695.319;-690.316
2.6725;-790.755;-785.934;-790.769;-785.947
2.6725;-695.319;-690.316;-695.305;-690.301
2.67489;-790.769;-785.947;-790.782;-785.96
2.67489;-695.305;-690.301;-695.292;-690.286
2.67727;-790.782;-785.96;-790.796;-785.972
2.67727;-695.292;-690.286;-695.278;-690.272
2.67965;-790.796;-785.972;-790.809;-785.985
2.67965;-695.278;-690.272;-695.264;-690.257
2.68203;-790.809;-785.985;-790.822;-785.997
2.68203;-695.264;-690.257;-695.251;-690.243
2.6844;-790.822;-785.997;-790.836;-786.01
2.6844;-695.251;-690.243;-695.237;-690.228
2.68677;-790.836;-786.01;-790.849;-786.023
2.68677;-695.237;-690.228;-695.223;-690.214
2.68914;-790.849;-786.023;-790.862;-786.035
2.68914;-695.223;-690.214;-695.21;-690.2
2.6915;-790.862;-786.035;-790.875;-786.048
2.6915;-695.21;-690.2;-695.196;-690.185
2.69387;-790.875;-786.048;-790.888;-786.06
2.69387;-695.196;-690.185;-695.183;-690.171
2.69623;-790.888;-786.06;-790.901;-786.073
2.69623;-695.183;-690.171;-695.169;-690.157
2.69859;-790.901;-786.073;-790.915;-786.085
2.69859;-695.169;-690.157;-695.161;-690.148
2.7;-790.915;-786.085;-790.922;-786.093
2.7;-695.161;-690.148;-695.154;-690.141
2.70125;-790.922;-786.093;-790.929;-786.1
2.70125;-695.154;-690.141;-695.141;-690.127
2.7035;-790.929;-786.1;-790.942;-786.112
2.7035;-695.141;-690.127;-695.127;-690.113
2.70586;-790.942;-786.112;-790.955;-786.124
2.70586;-695.127;-690.113;-695.114;-690.099
2.70821;-790.955;-786.124;-790.968;-786.137
2.70821;-695.114;-690.099;-695.1;-690.085
2.71056;-790.968;-786.137;-790.981;-786.149
2.71056;-695.1;-690.085;-695.086;-690.071
2.71292;-790.981;-786.149;-790.994;-786.162
2.71292;-695.086;-690.071;-695.073;-690.057
2.71527;-790.994;-786.162;-791.006;-786.174
2.71527;-695.073;-690.057;-695.059;-690.043
2.71762;-791.006;-786.174;-791.019;-786.187
2.71762;-695.059;-690.043;-695.046;-690.029
2.71997;-791.019;-786.187;-791.032;-786.2
2.71997;-695.046;-690.029;-695.032;-690.014
2.72232;-791.032;-786.2;-791.045;-786.212
2.72232;-695.032;-690.014;-695.019;-690
2.72467;-791.045;-786.212;-791.059;-786.224
2.72467;-695.019;-690;-695.005;-689.986
2.72702;-791.059;-786.224;-791.072;-786.237
2.72702;-695.005;-689.986;-694.992;-689.971
2.72938;-791.072;-786.237;-791.085;-786.249
2.72938;-694.992;-689.971;-694.978;-689.957
2.73173;-791.085;-786.249;-791.098;-786.262
2.73173;-694.978;-689.957;-694.965;-689.943
2.73408;-791.098;-786.262;-791.112;-786.274
2.73408;-694.965;-689.943;-694.951;-689.928
2.73643;-791.112;-786.274;-791.125;-786.287
2.73643;-694.951;-689.928;-694.938;-689.914
2.73878;-791.125;-786.287;-791.138;-786.299
2.73878;-694.938;-689.914;-694.924;-689.9
2.74113;-791.138;-786.299;-791.151;-786.312
2.74113;-694.924;-689.9;-694.911;-689.886
2.74348;-791.151;-786.312;-791.164;-786.324
2.74348;-694.911;-689.886;-694.897;-689.871
2.74583;-791.164;-786.324;-791.177;-786.337
2.74583;-694.897;-689.871;-694.883;-689.857
2.74818;-791.177;-786.337;-791.19;-786.349
2.74818;-694.883;-689.857;-694.87;-689.843
2.75054;-791.19;-786.349;-791.204;-786.362
2.75054;-694.87;-689.843;-694.856;-689.829
2.75289;-791.204;-786.362;-791.217;-786.374
2.75289;-694.856;-689.829;-694.843;-689.815
2.75525;-791.217;-786.374;-791.23;-786.387
2.75525;-694.843;-689.815;-694.829;-689.8
2.7576;-791.23;-786.387;-791.243;-786.399
2.7576;-694.829;-689.8;-694.815;-689.786
2.75996;-791.243;-786.399;-791.256;-786.412
2.75996;-694.815;-689.786;-694.802;-689.772
2.76232;-791.256;-786.412;-791.269;-786.424
2.76232;-694.802;-689.772;-694.788;-689.758
2.76467;-791.269;-786.424;-791.282;-786.437
2.76467;-694.788;-689.758;-694.774;-689.744
2.76703;-791.282;-786.437;-791.295;-786.45
2.76703;-694.774;-689.744;-694.761;-689.73
2.76939;-791.295;-786.45;-791.308;-786.462
2.76939;-694.761;-689.73;-694.747;-689.716
2.77175;-791.308;-786.462;-791.321;-786.475
2.77175;-694.747;-689.716;-694.733;-689.702
2.77412;-791.321;-786.475;-791.334;-786.487
2.77412;-694.733;-689.702;-694.72;-689.688
2.77648;-791.334;-786.487;-791.347;-786.5
2.77648;-694.72;-689.688;-694.706;-689.673
2.77885;-791.347;-786.5;-791.36;-786.513
2.77885;-694.706;-689.673;-694.692;-689.659
2.78121;-791.36;-786.513;-791.373;-786.525
2.78121;-694.692;-689.659;-694.678;-689.645
2.78358;-791.373;-786.525;-791.386;-786.538
2.78358;-694.678;-689.645;-694.664;-689.631
2.78595;-791.386;-786.538;-791.399;-786.551
2.78595;-694.664;-689.631;-694.651;-689.617
2.78832;-791.399;-786.551;-791.412;-786.563
2.78832;-694.651;-689.617;-694.637;-689.603
2.79069;-791.412;-786.563;-791.425;-786.576
2.79069;-694.637;-689.603;-694.623;-689.589
2.79306;-791.425;-786.576;-791.437;-786.589
2.79306;-694.623;-689.589;-694.609;-689.575
2.79543;-791.437;-786.589;-791.45;-786.602
2.79543;-694.609;-689.575;-694.595;-689.561
2.79779;-791.45;-786.602;-791.463;-786.614
2.79779;-694.595;-689.561;-694.583;-689.548
2.8;-791.463;-786.614;-791.475;-786.626
2.8;-694.583;-689.548;-694.575;-689.541
2.80125;-791.475;-786.626;-791.482;-786.633
2.80125;-694.575;-689.541;-694.562;-689.527
2.8035;-791.482;-786.633;-791.495;-786.645
2.8035;-694.562;-689.527;-694.548;-689.513
2.80587;-791.495;-786.645;-791.507;-786.658
2.80587;-694.548;-689.513;-694.535;-689.499
2.80823;-791.507;-786.658;-791.52;-786.67
2.80823;-694.535;-689.499;-694.521;-689.485
2.81059;-791.52;-786.67;-791.533;-786.683
2.81059;-694.521;-689.485;-694.507;-689.471
2.81295;-791.533;-786.683;-791.546;-786.696
2.81295;-694.507;-689.471;-694.493;-689.457
2.81531;-791.546;-786.696;-791.559;-786.708
2.81531;-694.493;-689.457;-694.479;-689.443
2.81767;-791.559;-786.708;-791.572;-786.721
2.81767;-694.479;-689.443;-694.466;-689.43
2.82003;-791.572;-786.721;-791.585;-786.734
2.82003;-694.466;-689.43;-694.452;-689.416
2.82239;-791.585;-786.734;-791.597;-786.746
2.82239;-694.452;-689.416;-694.438;-689.402
2.82475;-791.597;-786.746;-791.61;-786.759
2.82475;-694.438;-689.402;-694.424;-689.388
2.82711;-791.61;-786.759;-791.623;-786.772
2.82711;-694.424;-689.388;-694.41;-689.374
2.82947;-791.623;-786.772;-791.636;-786.784
2.82947;-694.41;-689.374;-694.397;-689.36
2.83183;-791.636;-786.784;-791.649;-786.797
2.83183;-694.397;-689.36;-694.383;-689.346
2.83419;-791.649;-786.797;-791.662;-786.81
2.83419;-694.383;-689.346;-694.369;-689.332
2.83654;-791.662;-786.81;-791.674;-786.822
2.83654;-694.369;-689.332;-694.355;-689.318
2.8389;-791.674;-786.822;-791.687;-786.835
2.8389;-694.355;-689.318;-694.341;-689.304
2.84126;-791.687;-786.835;-791.7;-786.848
2.84126;-694.341;-689.304;-694.328;-689.29
2.84362;-791.7;-786.848;-791.713;-786.86
2.84362;-694.328;-689.29;-694.314;-689.276
2.84597;-791.713;-786.86;-791.726;-786.873
2.84597;-694.314;-689.276;-694.3;-689.263
2.84833;-791.726;-786.873;-791.739;-786.886
2.84833;-694.3;-689.263;-694.286;-689.249
2.85069;-791.739;-786.886;-791.752;-786.898
2.85069;-694.286;-689.249;-694.273;-689.235
2.85305;-791.752;-786.898;-791.765;-786.911
2.85305;-694.273;-689.235;-694.259;-689.221
2.8554;-791.765;-786.911;-791.778;-786.923
2.8554;-694.259;-689.221;-694.245;-689.207
2.85776;-791.778;-786.923;-791.79;-786.936
2.85776;-694.245;-689.207;-694.231;-689.193
2.86012;-791.79;-786.936;-791.803;-786.949
2.86012;-694.231;-689.193;-694.218;-689.179
2.86247;-791.803;-786.949;-791.816;-786.961
2.86247;-694.218;-689.179;-694.204;-689.165
2.86483;-791.816;-786.961;-791.829;-786.974
2.86483;-694.204;-689.165;-694.19;-689.151
2.86719;-791.829;-786.974;-791.842;-786.987
2.86719;-694.19;-689.151;-694.176;-689.137
2.86955;-791.842;-786.987;-791.855;-786.999
2.86955;-694.176;-689.137;-694.163;-689.123
2.8719;-791.855;-786.999;-791.868;-787.012
2.8719;-694.163;-689.123;-694.149;-689.109
2.87426;-791.868;-787.012;-791.881;-787.024
2.87426;-694.149;-689.109;-694.135;-689.095
2.87661;-791.881;-787.024;-791.894;-787.037
2.87661;-694.135;-689.095;-694.121;-689.081
2.87897;-791.894;-787.037;-791.907;-787.05
2.87897;-694.121;-689.081;-694.108;-689.067
2.88133;-791.907;-787.05;-791.92;-787.062
2.88133;-694.108;-689.067;-694.094;-689.053
2.88368;-791.92;-787.062;-791.933;-787.075
2.88368;-694.094;-689.053;-694.08;-689.039
2.88604;-791.933;-787.075;-791.946;-787.087
2.88604;-694.08;-689.039;-694.066;-689.025
2.88839;-791.946;-787.087;-791.959;-787.1
2.88839;-694.066;-689.025;-694.053;-689.011
2.89075;-791.959;-787.1;-791.972;-787.112
2.89075;-694.053;-689.011;-694.039;-688.997
2.8931;-791.972;-787.112;-791.985;-787.125
2.8931;-694.039;-688.997;-694.025;-688.983
2.89545;-791.985;-787.125;-791.998;-787.137
2.89545;-694.025;-688.983;-694.012;-688.969
2.8978;-791.998;-787.137;-792.011;-787.15
2.8978;-694.012;-688.969;-693.999;-688.955
2.9;-792.011;-787.15;-792.024;-787.161
2.9;-693.999;-688.955;-693.991;-688.948
2.90125;-792.024;-787.161;-792.031;-787.168
2.90125;-693.991;-688.948;-693.978;-688.935
2.9035;-792.031;-787.168;-792.043;-787.18
2.9035;-693.978;-688.935;-693.965;-688.92
2.90585;-792.043;-787.18;-792.056;-787.193
2.90585;-693.965;-688.92;-693.951;-688.906
2.9082;-792.056;-787.193;-792.069;-787.205
2.9082;-693.951;-688.906;-693.937;-688.892
2.91054;-792.069;-787.205;-792.082;-787.217
2.91054;-693.937;-688.892;-693.924;-688.878
2.91289;-792.082;-787.217;-792.095;-787.23
2.91289;-693.924;-688.878;-693.91;-688.864
2.91523;-792.095;-787.23;-792.108;-787.242
2.91523;-693.91;-688.864;-693.896;-688.85
2.91757;-792.108;-787.242;-792.121;-787.255
2.91757;-693.896;-688.85;-693.883;-688.836
2.91991;-792.121;-787.255;-792.134;-787.267
2.91991;-693.883;-688.836;-693.869;-688.822
2.92226;-792.134;-787.267;-792.147;-787.28
2.92226;-693.869;-688.822;-693.856;-688.808
2.92459;-792.147;-787.28;-792.16;-787.292
2.92459;-693.856;-688.808;-693.842;-688.794
2.92693;-792.16;-787.292;-792.174;-787.304
2.92693;-693.842;-688.794;-693.829;-688.78
2.92927;-792.174;-787.304;-792.187;-787.317
2.92927;-693.829;-688.78;-693.815;-688.766
2.93161;-792.187;-787.317;-792.2;-787.329
2.93161;-693.815;-688.766;-693.801;-688.752
2.93394;-792.2;-787.329;-792.213;-787.342
2.93394;-693.801;-688.752;-693.788;-688.738
2.93628;-792.213;-787.342;-792.226;-787.354
2.93628;-693.788;-688.738;-693.774;-688.724
2.93861;-792.226;-787.354;-792.239;-787.366
2.93861;-693.774;-688.724;-693.761;-688.71
2.94094;-792.239;-787.366;-792.252;-787.379
2.94094;-693.761;-688.71;-693.747;-688.696
2.94327;-792.252;-787.379;-792.265;-787.391
2.94327;-693.747;-688.696;-693.734;-688.682
2.9456;-792.265;-787.391;-792.278;-787.403
2.9456;-693.734;-688.682;-693.72;-688.668
2.94792;-792.278;-787.403;-792.291;-787.416
2.94792;-693.72;-688.668;-693.707;-688.654
2.95025;-792.291;-787.416;-792.304;-787.428
2.95025;-693.707;-688.654;-693.693;-688.64
2.95257;-792.304;-787.428;-792.317;-787.44
2.95257;-693.693;-688.64;-693.68;-688.626
2.95489;-792.317;-787.44;-792.33;-787.452
2.95489;-693.68;-688.626;-693.667;-688.612
2.95721;-792.33;-787.452;-792.343;-787.465
2.95721;-693.667;-688.612;-693.653;-688.598
2.95952;-792.343;-787.465;-792.356;-787.477
2.95952;-693.653;-688.598;-693.64;-688.584
2.96183;-792.356;-787.477;-792.369;-787.489
2.96183;-693.64;-688.584;-693.626;-688.57
2.96414;-792.369;-787.489;-792.382;-787.501
2.96414;-693.626;-688.57;-693.613;-688.556
2.96644;-792.382;-787.501;-792.395;-787.514
2.96644;-693.613;-688.556;-693.6;-688.542
2.96874;-792.395;-787.514;-792.408;-787.526
2.96874;-693.6;-688.542;-693.586;-688.529
2.97103;-792.408;-787.526;-792.421;-787.538
2.97103;-693.586;-688.529;-693.573;-688.515
2.97332;-792.421;-787.538;-792.433;-787.55
2.97332;-693.573;-688.515;-693.56;-688.501
2.97561;-792.433;-787.55;-792.446;-787.562
2.97561;-693.56;-688.501;-693.547;-688.487
2.97789;-792.446;-787.562;-792.459;-787.574
2.97789;-693.547;-688.487;-693.533;-688.474
2.98018;-792.459;-787.574;-792.471;-787.587
2.98018;-693.533;-688.474;-693.52;-688.46
2.98246;-792.471;-787.587;-792.484;-787.599
2.98246;-693.52;-688.46;-693.507;-688.447
2.98473;-792.484;-787.599;-792.497;-787.611
2.98473;-693.507;-688.447;-693.493;-688.433
2.98701;-792.497;-787.611;-792.509;-787.623
2.98701;-693.493;-688.433;-693.48;-688.42
2.98928;-792.509;-787.623;-792.522;-787.635
2.98928;-693.48;-688.42;-693.467;-688.406
2.99155;-792.522;-787.635;-792.534;-787.647
2.99155;-693.467;-688.406;-693.454;-688.393
2.99382;-792.534;-787.647;-792.547;-787.659
2.99382;-693.454;-688.393;-693.44;-688.38
2.99608;-792.547;-787.659;-792.559;-787.671
2.99608;-693.44;-688.38;-693.427;-688.366
2.99835;-792.559;-787.671;-792.571;-787.684
2.99835;-693.427;-688.366;-693.417;-688.356
3;-792.571;-787.684;-792.58;-787.692
3;-693.417;-688.356;-693.41;-688.349
3.00125;-792.58;-787.692;-792.587;-787.699
3.00125;-693.41;-688.349;-693.397;-688.335
3.0035;-792.587;-787.699;-792.6;-787.711
3.0035;-693.397;-688.335;-693.384;-688.321
3.0058;-792.6;-787.711;-792.613;-787.723
3.0058;-693.384;-688.321;-693.371;-688.308
3.00809;-792.613;-787.723;-792.626;-787.735
3.00809;-693.371;-688.308;-693.358;-688.294
3.01038;-792.626;-787.735;-792.639;-787.747
3.01038;-693.358;-688.294;-693.345;-688.28
3.01267;-792.639;-787.747;-792.652;-787.759
3.01267;-693.345;-688.28;-693.332;-688.267
3.01495;-792.652;-787.759;-792.664;-787.771
3.01495;-693.332;-688.267;-693.319;-688.253
3.01723;-792.664;-787.771;-792.677;-787.783
3.01723;-693.319;-688.253;-693.306;-688.24
3.0195;-792.677;-787.783;-792.69;-787.794
3.0195;-693.306;-688.24;-693.293;-688.226
3.02177;-792.69;-787.794;-792.702;-787.806
3.02177;-693.293;-688.226;-693.28;-688.213
3.02404;-792.702;-787.806;-792.715;-787.818
3.02404;-693.28;-688.213;-693.267;-688.2
3.02631;-792.715;-787.818;-792.727;-787.83
3.02631;-693.267;-688.2;-693.255;-688.187
3.02857;-792.727;-787.83;-792.74;-787.841
3.02857;-693.255;-688.187;-693.242;-688.174
3.03084;-792.74;-787.841;-792.752;-787.853
3.03084;-693.242;-688.174;-693.229;-688.161
3.03309;-792.752;-787.853;-792.765;-787.865
3.03309;-693.229;-688.161;-693.217;-688.148
3.03535;-792.765;-787.865;-792.777;-787.876
3.03535;-693.217;-688.148;-693.204;-688.135
3.0376;-792.777;-787.876;-792.789;-787.888
3.0376;-693.204;-688.135;-693.191;-688.122
3.03985;-792.789;-787.888;-792.801;-787.899
3.03985;-693.191;-688.122;-693.179;-688.109
3.0421;-792.801;-787.899;-792.813;-787.911
3.0421;-693.179;-688.109;-693.166;-688.097
3.04435;-792.813;-787.911;-792.825;-787.922
3.04435;-693.166;-688.097;-693.154;-688.084
3.04659;-792.825;-787.922;-792.838;-787.934
3.04659;-693.154;-688.084;-693.141;-688.072
3.04884;-792.838;-787.934;-792.85;-787.945
3.04884;-693.141;-688.072;-693.129;-688.059
3.05108;-792.85;-787.945;-792.861;-787.957
3.05108;-693.129;-688.059;-693.117;-688.047
3.05332;-792.861;-787.957;-792.873;-787.968
3.05332;-693.117;-688.047;-693.104;-688.034
3.05556;-792.873;-787.968;-792.885;-787.979
3.05556;-693.104;-688.034;-693.092;-688.022
3.05779;-792.885;-787.979;-792.897;-787.991
3.05779;-693.092;-688.022;-693.08;-688.01
3.06003;-792.897;-787.991;-792.909;-788.002
3.06003;-693.08;-688.01;-693.067;-687.998
3.06226;-792.909;-788.002;-792.921;-788.013
3.06226;-693.067;-687.998;-693.055;-687.986
3.06449;-792.921;-788.013;-792.933;-788.024
3.06449;-693.055;-687.986;-693.043;-687.974
3.06672;-792.933;-788.024;-792.944;-788.035
3.06672;-693.043;-687.974;-693.031;-687.962
3.06895;-792.944;-788.035;-792.956;-788.047
3.06895;-693.031;-687.962;-693.019;-687.95
3.07118;-792.956;-788.047;-792.968;-788.058
3.07118;-693.019;-687.95;-693.007;-687.938
3.0734;-792.968;-788.058;-792.979;-788.069
3.0734;-693.007;-687.938;-692.995;-687.926
3.07562;-792.979;-788.069;-792.991;-788.08
3.07562;-692.995;-687.926;-692.983;-687.914
3.07784;-792.991;-788.08;-793.002;-788.091
3.07784;-692.983;-687.914;-692.971;-687.902
3.08006;-793.002;-788.091;-793.014;-788.102
3.08006;-692.971;-687.902;-692.959;-687.891
3.08227;-793.014;-788.102;-793.025;-788.113
3.08227;-692.959;-687.891;-692.947;-687.879
3.08449;-793.025;-788.113;-793.037;-788.124
3.08449;-692.947;-687.879;-692.935;-687.868
3.0867;-793.037;-788.124;-793.048;-788.135
3.0867;-692.935;-687.868;-692.924;-687.856
3.0889;-793.048;-788.135;-793.06;-788.145
3.0889;-692.924;-687.856;-692.912;-687.845
3.09111;-793.06;-788.145;-793.071;-788.156
3.09111;-692.912;-687.845;-692.9;-687.833
3.09331;-793.071;-788.156;-793.082;-788.167
3.09331;-692.9;-687.833;-692.889;-687.822
3.09551;-793.082;-788.167;-793.094;-788.178
3.09551;-692.889;-687.822;-692.877;-687.81
3.09771;-793.094;-788.178;-793.105;-788.189
3.09771;-692.877;-687.81;-692.866;-687.799
3.09991;-793.105;-788.189;-793.116;-788.199
3.09991;-692.866;-687.799;-692.865;-687.799
3.1;-793.116;-788.199;-793.117;-788.2
3.1;-692.865;-687.799;-692.859;-687.792
3.10125;-793.117;-788.2;-793.123;-788.206
3.10125;-692.859;-687.792;-692.847;-687.781
3.1035;-793.123;-788.206;-793.135;-788.217
3.1035;-692.847;-687.781;-692.835;-687.769
3.10577;-793.135;-788.217;-793.146;-788.228
3.10577;-692.835;-687.769;-692.824;-687.757
3.10804;-793.146;-788.228;-793.158;-788.238
3.10804;-692.824;-687.757;-692.812;-687.746
3.1103;-793.158;-788.238;-793.169;-788.249
3.1103;-692.812;-687.746;-692.8;-687.734
3.11256;-793.169;-788.249;-793.181;-788.26
3.11256;-692.8;-687.734;-692.789;-687.723
3.11482;-793.181;-788.26;-793.192;-788.271
3.11482;-692.789;-687.723;-692.777;-687.712
3.11708;-793.192;-788.271;-793.204;-788.282
3.11708;-692.777;-687.712;-692.766;-687.7
3.11933;-793.204;-788.282;-793.215;-788.293
3.11933;-692.766;-687.7;-692.754;-687.689
3.12158;-793.215;-788.293;-793.227;-788.303
3.12158;-692.754;-687.689;-692.743;-687.678
3.12383;-793.227;-788.303;-793.238;-788.314
3.12383;-692.743;-687.678;-692.731;-687.667
3.12607;-793.238;-788.314;-793.249;-788.324
3.12607;-692.731;-687.667;-692.72;-687.656
3.12831;-793.249;-788.324;-793.261;-788.335
3.12831;-692.72;-687.656;-692.709;-687.644
3.13055;-793.261;-788.335;-793.272;-788.346
3.13055;-692.709;-687.644;-692.698;-687.633
3.13279;-793.272;-788.346;-793.283;-788.356
3.13279;-692.698;-687.633;-692.686;-687.623
3.13502;-793.283;-788.356;-793.294;-788.367
3.13502;-692.686;-687.623;-692.675;-687.612
3.13726;-793.294;-788.367;-793.306;-788.377
3.13726;-692.675;-687.612;-692.664;-687.601
3.13949;-793.306;-788.377;-793.317;-788.387
3.13949;-692.664;-687.601;-692.653;-687.59
3.14171;-793.317;-788.387;-793.328;-788.398
3.14171;-692.653;-687.59;-692.642;-687.579
3.14394;-793.328;-788.398;-793.339;-788.408
3.14394;-692.642;-687.579;-692.631;-687.568
3.14616;-793.339;-788.408;-793.35;-788.418
3.14616;-692.631;-687.568;-692.62;-687.558
3.14838;-793.35;-788.418;-793.361;-788.429
3.14838;-692.62;-687.558;-692.609;-687.547
3.1506;-793.361;-788.429;-793.373;-788.439
3.1506;-692.609;-687.547;-692.599;-687.537
3.15282;-793.373;-788.439;-793.384;-788.449
3.15282;-692.599;-687.537;-692.588;-687.526
3.15503;-793.384;-788.449;-793.395;-788.459
3.15503;-692.588;-687.526;-692.577;-687.515
3.15725;-793.395;-788.459;-793.406;-788.469
3.15725;-692.577;-687.515;-692.566;-687.505
3.15946;-793.406;-788.469;-793.417;-788.479
3.15946;-692.566;-687.505;-692.556;-687.495
3.16167;-793.417;-788.479;-793.428;-788.489
3.16167;-692.556;-687.495;-692.545;-687.484
3.16387;-793.428;-788.489;-793.439;-788.499
3.16387;-692.545;-687.484;-692.535;-687.474
3.16608;-793.439;-788.499;-793.449;-788.509
3.16608;-692.535;-687.474;-692.524;-687.464
3.16828;-793.449;-788.509;-793.46;-788.519
3.16828;-692.524;-687.464;-692.513;-687.453
3.17048;-793.46;-788.519;-793.471;-788.529
3.17048;-692.513;-687.453;-692.503;-687.443
3.17268;-793.471;-788.529;-793.482;-788.539
3.17268;-692.503;-687.443;-692.493;-687.433
3.17488;-793.482;-788.539;-793.493;-788.549
3.17488;-692.493;-687.433;-692.482;-687.423
3.17708;-793.493;-788.549;-793.504;-788.559
3.17708;-692.482;-687.423;-692.472;-687.413
3.17927;-793.504;-788.559;-793.514;-788.569
3.17927;-692.472;-687.413;-692.462;-687.403
3.18146;-793.514;-788.569;-793.525;-788.578
3.18146;-692.462;-687.403;-692.451;-687.393
3.18365;-793.525;-788.578;-793.536;-788.588
3.18365;-692.451;-687.393;-692.441;-687.383
3.18584;-793.536;-788.588;-793.547;-788.598
3.18584;-692.441;-687.383;-692.431;-687.373
3.18803;-793.547;-788.598;-793.557;-788.607
3.18803;-692.431;-687.373;-692.421;-687.363
3.19021;-793.557;-788.607;-793.568;-788.617
3.19021;-692.421;-687.363;-692.411;-687.354
3.19239;-793.568;-788.617;-793.579;-788.627
3.19239;-692.411;-687.354;-692.401;-687.344
3.19457;-793.579;-788.627;-793.589;-788.636
3.19457;-692.401;-687.344;-692.39;-687.334
3.19675;-793.589;-788.636;-793.6;-788.646
3.19675;-692.39;-687.334;-692.38;-687.325
3.19893;-793.6;-788.646;-793.61;-788.655
3.19893;-692.38;-687.325;-692.376;-687.32
3.2;-793.61;-788.655;-793.616;-788.66
3.2;-692.376;-687.32;-692.37;-687.314
3.20125;-793.616;-788.66;-793.622;-788.665
3.20125;-692.37;-687.314;-692.36;-687.304
3.2035;-793.622;-788.665;-793.633;-788.675
3.2035;-692.36;-687.304;-692.349;-687.294
3.20575;-793.633;-788.675;-793.644;-788.685
3.20575;-692.349;-687.294;-692.339;-687.285
3.208;-793.644;-788.685;-793.654;-788.694
3.208;-692.339;-687.285;-692.329;-687.275
3.21025;-793.654;-788.694;-793.665;-788.704
3.21025;-692.329;-687.275;-692.319;-687.265
3.21249;-793.665;-788.704;-793.676;-788.714
3.21249;-692.319;-687.265;-692.309;-687.255
3.21474;-793.676;-788.714;-793.687;-788.723
3.21474;-692.309;-687.255;-692.299;-687.246
3.21697;-793.687;-788.723;-793.698;-788.733
3.21697;-692.299;-687.246;-692.289;-687.236
3.21921;-793.698;-788.733;-793.708;-788.742
3.21921;-692.289;-687.236;-692.279;-687.226
3.22145;-793.708;-788.742;-793.719;-788.752
3.22145;-692.279;-687.226;-692.269;-687.217
3.22368;-793.719;-788.752;-793.73;-788.761
3.22368;-692.269;-687.217;-692.259;-687.207
3.22591;-793.73;-788.761;-793.741;-788.771
3.22591;-692.259;-687.207;-692.25;-687.198
3.22813;-793.741;-788.771;-793.751;-788.78
3.22813;-692.25;-687.198;-692.24;-687.188
3.23036;-793.751;-788.78;-793.762;-788.789
3.23036;-692.24;-687.188;-692.23;-687.179
3.23258;-793.762;-788.789;-793.773;-788.799
3.23258;-692.23;-687.179;-692.221;-687.17
3.2348;-793.773;-788.799;-793.783;-788.808
3.2348;-692.221;-687.17;-692.211;-687.16
3.23701;-793.783;-788.808;-793.794;-788.817
3.23701;-692.211;-687.16;-692.202;-687.151
3.23922;-793.794;-788.817;-793.804;-788.826
3.23922;-692.202;-687.151;-692.192;-687.142
3.24143;-793.804;-788.826;-793.815;-788.836
3.24143;-692.192;-687.142;-692.183;-687.133
3.24364;-793.815;-788.836;-793.825;-788.845
3.24364;-692.183;-687.133;-692.173;-687.124
3.24584;-793.825;-788.845;-793.836;-788.854
3.24584;-692.173;-687.124;-692.164;-687.115
3.24804;-793.836;-788.854;-793.846;-788.863
3.24804;-692.164;-687.115;-692.154;-687.106
3.25024;-793.846;-788.863;-793.856;-788.872
3.25024;-692.154;-687.106;-692.145;-687.097
3.25244;-793.856;-788.872;-793.867;-788.881
3.25244;-692.145;-687.097;-692.136;-687.088
3.25463;-793.867;-788.881;-793.877;-788.89
3.25463;-692.136;-687.088;-692.127;-687.08
3.25682;-793.877;-788.89;-793.887;-788.899
3.25682;-692.127;-687.08;-692.117;-687.071
3.25902;-793.887;-788.899;-793.897;-788.908
3.25902;-692.117;-687.071;-692.108;-687.062
3.2612;-793.897;-788.908;-793.907;-788.917
3.2612;-692.108;-687.062;-692.099;-687.054
3.26339;-793.907;-788.917;-793.917;-788.925
3.26339;-692.099;-687.054;-692.09;-687.045
3.26558;-793.917;-788.925;-793.928;-788.934
3.26558;-692.09;-687.045;-692.081;-687.037
3.26776;-793.928;-788.934;-793.938;-788.943
3.26776;-692.081;-687.037;-692.072;-687.028
3.26994;-793.938;-788.943;-793.948;-788.952
3.26994;-692.072;-687.028;-692.063;-687.02
3.27212;-793.948;-788.952;-793.957;-788.961
3.27212;-692.063;-687.02;-692.054;-687.012
3.2743;-793.957;-788.961;-793.967;-788.969
3.2743;-692.054;-687.012;-692.045;-687.003
3.27648;-793.967;-788.969;-793.977;-788.978
3.27648;-692.045;-687.003;-692.036;-686.995
3.27866;-793.977;-788.978;-793.987;-788.987
3.27866;-692.036;-686.995;-692.027;-686.987
3.28083;-793.987;-788.987;-793.997;-788.995
3.28083;-692.027;-686.987;-692.018;-686.979
3.28301;-793.997;-788.995;-794.007;-789.004
3.28301;-692.018;-686.979;-692.009;-686.971
3.28518;-794.007;-789.004;-794.016;-789.013
3.28518;-692.009;-686.971;-692.001;-686.963
3.28735;-794.016;-789.013;-794.026;-789.021
3.28735;-692.001;-686.963;-691.992;-686.955
3.28952;-794.026;-789.021;-794.036;-789.03
3.28952;-691.992;-686.955;-691.983;-686.947
3.2917;-794.036;-789.03;-794.046;-789.039
3.2917;-691.983;-686.947;-691.975;-686.939
3.29387;-794.046;-789.039;-794.055;-789.047
3.29387;-691.975;-686.939;-691.966;-686.931
3.29604;-794.055;-789.047;-794.065;-789.056
3.29604;-691.966;-686.931;-691.957;-686.923
3.29821;-794.065;-789.056;-794.074;-789.064
3.29821;-691.957;-686.923;-691.95;-686.917
3.3;-794.074;-789.064;-794.082;-789.071
