benchmark,instance,result,time,accuracy,timesteps
TRAF22,,1,357,,
ROBE21,1,1,808,4.18908e-07,21201
ROBE21,2,1,4591,1.8202e-05,105784
ROBE21,3,1,7413,1.8202e-05,167423
CVDP23,,1,1016,,
LALO20,W01,1,2039,2.07096,
LALO20,W005,1,28,0.403032
LALO20,W001,1,11,0.0104207,
LOVO21,,1,87,0.0589509,
SPRE22,,1,148,,
